<?xml version="1.0" encoding="utf-8"?>
<!-- Generator: Adobe Illustrator 24.1.2, SVG Export Plug-In . SVG Version: 6.00 Build 0)  -->
<svg version="1.1" id="Слой_1" xmlns="http://www.w3.org/2000/svg" xmlns:xlink="http://www.w3.org/1999/xlink" x="0px" y="0px"
	 viewBox="0 0 16 20" style="enable-background:new 0 0 16 20;" xml:space="preserve">
<style type="text/css">
	.st0{fill:#F9796F;}
</style>
<path class="st0" d="M14.4,19.3H1.6c-0.6,0-1-0.4-1-1c0-2,0.8-3.8,2.2-5.2C4.2,11.6,6,10.8,8,10.8c2,0,3.9,0.8,5.2,2.2
	c1.4,1.4,2.2,3.3,2.2,5.2C15.4,18.8,15,19.3,14.4,19.3z M2.7,17.3h10.6c-0.2-1.1-0.7-2-1.5-2.8c-1-1-2.4-1.6-3.8-1.6
	s-2.8,0.6-3.8,1.6C3.4,15.2,2.9,16.2,2.7,17.3z M8,10.1c-1.2,0-2.4-0.5-3.3-1.4C3.8,7.8,3.3,6.7,3.3,5.4c0-1.2,0.5-2.4,1.4-3.3
	C5.6,1.2,6.8,0.8,8,0.8c1.2,0,2.4,0.5,3.3,1.4c0.9,0.9,1.4,2.1,1.4,3.3c0,1.2-0.5,2.4-1.4,3.3C10.4,9.6,9.2,10.1,8,10.1z M8,2.8
	C7.3,2.8,6.6,3,6.1,3.5C5.6,4,5.3,4.7,5.3,5.4c0,0.7,0.3,1.4,0.8,1.9c1,1,2.8,1,3.8,0c0.5-0.5,0.8-1.2,0.8-1.9
	c0-0.7-0.3-1.4-0.8-1.9C9.4,3,8.7,2.8,8,2.8z"/>
</svg>
