<svg width="18" height="18" viewBox="0 0 18 18" fill="none" xmlns="http://www.w3.org/2000/svg">
<g clip-path="url(#clip0_1_442)">
<path d="M10.4325 6.3075L9.375 5.25L5.625 9L9.375 12.75L10.4325 11.6925L8.4975 9.75H15.75L15.75 8.25H8.4975L10.4325 6.3075ZM3.75 15.75L14.25 15.75C15.0825 15.75 15.75 15.075 15.75 14.25V11.25H14.25V14.25L3.75 14.25L3.75 3.75L14.25 3.75V6.75H15.75V3.75C15.75 2.925 15.0825 2.25 14.25 2.25L3.75 2.25C2.925 2.25 2.25 2.925 2.25 3.75L2.25 14.25C2.25 15.075 2.925 15.75 3.75 15.75Z" fill="#4083FD"/>
</g>
<defs>
<clipPath id="clip0_1_442">
<rect width="18" height="18" fill="white" transform="translate(18 18) rotate(-180)"/>
</clipPath>
</defs>
</svg>
