<svg width="339" height="279" viewBox="0 0 339 279" fill="none" xmlns="http://www.w3.org/2000/svg">
<path d="M196.5 70.0466C196.374 70.2752 196.248 70.5117 196.106 70.7403C196.043 70.8585 195.964 70.9768 195.909 71.0872C195.87 71.1896 195.831 71.3078 195.799 71.4182C195.657 71.8833 195.531 72.3878 195.413 72.8766L194.688 75.8484C194.459 76.8417 194.239 77.8349 194.034 78.8282C193.908 79.4904 193.782 80.1446 193.703 80.8383L218.069 57.1265C215.89 52.4518 214.457 47.4645 213.822 42.3459C210.039 44.1432 205.2 46.3741 198.667 49.0858C187.816 53.587 184.9 76.889 184.9 76.889C184.9 76.889 189.904 77.9926 192.726 77.1728C192.772 76.6007 192.853 76.032 192.97 75.4701C193.184 74.4008 193.517 73.359 193.963 72.3642C194.189 71.8545 194.46 71.3664 194.775 70.9058C194.853 70.7876 194.948 70.6694 195.05 70.5432L195.263 70.22C195.413 70.0072 195.547 69.7865 195.681 69.5657C196.784 67.7921 197.832 65.9554 198.865 64.1265L201.977 58.6164C201.126 60.5476 200.251 62.4685 199.353 64.3788C198.439 66.2785 197.525 68.1784 196.5 70.0466ZM186.469 76.6682C186.162 76.6573 185.872 76.528 185.66 76.3074C185.447 76.0869 185.328 75.7923 185.328 75.4858C185.328 75.1793 185.447 74.8847 185.66 74.6642C185.872 74.4436 186.162 74.3143 186.469 74.3033C186.775 74.3143 187.065 74.4436 187.278 74.6642C187.49 74.8847 187.609 75.1793 187.609 75.4858C187.609 75.7923 187.49 76.0869 187.278 76.3074C187.065 76.528 186.775 76.6573 186.469 76.6682ZM190.346 76.6682C190.04 76.6573 189.749 76.528 189.537 76.3074C189.324 76.0869 189.205 75.7923 189.205 75.4858C189.205 75.1793 189.324 74.8847 189.537 74.6642C189.749 74.4436 190.04 74.3143 190.346 74.3033C190.652 74.3143 190.942 74.4436 191.155 74.6642C191.368 74.8847 191.486 75.1793 191.486 75.4858C191.486 75.7923 191.368 76.0869 191.155 76.3074C190.942 76.528 190.652 76.6573 190.346 76.6682Z" fill="#020202"/>
<path d="M193.637 81.9163C194.949 82.4894 196.343 82.8544 197.768 82.9981C198.451 83.0566 199.139 83.0308 199.816 82.9213C200.517 82.836 201.199 82.6175 201.974 82.4458C201.461 83.0534 200.804 83.5226 200.063 83.8102C199.309 84.1221 198.49 84.2478 197.677 84.1767C196.87 84.1155 196.085 83.8802 195.377 83.4872C194.675 83.1167 194.077 82.5767 193.637 81.9163Z" fill="black"/>
<path d="M123.976 119.607C123.851 118.526 123.787 117.439 123.787 116.351L123.976 119.607Z" fill="black"/>
<path d="M124.032 120.568L123.977 119.607C124.175 121.762 124.819 123.853 125.868 125.747C123.874 122.823 124.032 120.568 124.032 120.568Z" fill="black"/>
<path d="M125.939 125.858C126.192 126.228 126.483 126.607 126.806 126.993C126.48 126.644 126.19 126.264 125.939 125.858Z" fill="black"/>
<path d="M292.121 140.291L0.544922 138.313V133.544C24.8087 133.93 49.0726 134.222 73.3364 134.419C97.6002 134.687 121.864 134.773 146.128 134.915C170.392 135.089 194.663 135.097 218.927 135.144L255.327 135.183L291.443 135.104L292.121 140.291Z" fill="black"/>
<path d="M338.569 106.536V111.432L292.121 140.291L292.035 135.002L303.651 127.939L315.298 120.82L338.569 106.536Z" fill="black"/>
<path d="M182.877 119.754L184.453 119.782" stroke="#020202" stroke-width="1.93554" stroke-miterlimit="10"/>
<path d="M187.693 119.84L224.976 120.513" stroke="#020202" stroke-width="1.93554" stroke-miterlimit="10" stroke-dasharray="3.98 3.98"/>
<path d="M226.598 120.542L228.173 120.57" stroke="#020202" stroke-width="1.93554" stroke-miterlimit="10"/>
<path d="M184.6 116.933L186.175 116.961" stroke="#020202" stroke-width="1.93554" stroke-miterlimit="10"/>
<path d="M189.418 117.02L226.7 117.692" stroke="#020202" stroke-width="1.93554" stroke-miterlimit="10" stroke-dasharray="3.98 3.98"/>
<path d="M228.32 117.721L229.896 117.75" stroke="#020202" stroke-width="1.93554" stroke-miterlimit="10"/>
<path d="M186.68 114.147L188.256 114.176" stroke="#020202" stroke-width="1.93554" stroke-miterlimit="10"/>
<path d="M191.498 114.234L228.78 114.906" stroke="#020202" stroke-width="1.93554" stroke-miterlimit="10" stroke-dasharray="3.98 3.98"/>
<path d="M230.402 114.936L231.978 114.964" stroke="#020202" stroke-width="1.93554" stroke-miterlimit="10"/>
<path d="M52.4318 111.065C52.837 122.5 53.105 133.934 53.4465 145.369L54.2077 179.673C54.3469 185.39 54.5075 191.107 54.6896 196.825C54.8512 202.542 54.8597 208.259 54.715 213.977L54.417 222.552C54.2663 225.411 54.1655 228.27 53.9626 231.128C53.6097 236.846 53.1588 242.563 52.4318 248.28C52.424 248.342 52.3939 248.399 52.3472 248.44C52.3005 248.481 52.2404 248.504 52.1782 248.504C52.1159 248.504 52.0558 248.481 52.0091 248.44C51.9624 248.399 51.9323 248.342 51.9245 248.28C51.1975 242.563 50.7466 236.846 50.394 231.128C50.1908 228.27 50.09 225.411 49.9393 222.552L49.6413 213.977C49.4944 208.259 49.5028 202.542 49.6667 196.825C49.8548 191.107 50.0154 185.39 50.1486 179.673L50.9098 145.369C51.2514 133.934 51.5193 122.5 51.9245 111.065C51.9269 110.999 51.9547 110.937 52.002 110.892C52.0493 110.846 52.1124 110.821 52.1781 110.821C52.2438 110.821 52.307 110.846 52.3543 110.892C52.4016 110.937 52.4294 110.999 52.4318 111.065H52.4318Z" fill="#020202"/>
<path d="M7.04125 140.203C7.44641 151.638 7.7144 163.072 8.05594 174.507L8.81714 208.811C8.9563 214.528 9.11694 220.246 9.29904 225.963C9.46087 231.68 9.46935 237.397 9.32449 243.115L9.02645 251.691C8.87576 254.549 8.77497 257.408 8.57199 260.267C8.21912 265.984 7.76844 271.701 7.04123 277.418C7.03343 277.48 7.00336 277.537 6.95665 277.578C6.90995 277.619 6.84982 277.642 6.78756 277.642C6.7253 277.642 6.66517 277.619 6.61847 277.578C6.57176 277.537 6.54169 277.48 6.53389 277.418C5.80688 271.701 5.35601 265.984 5.00334 260.267C4.80016 257.408 4.69937 254.549 4.54868 251.691L4.25066 243.115C4.10374 237.397 4.11222 231.68 4.2761 225.963C4.46417 220.245 4.6248 214.528 4.75799 208.811L5.51919 174.507C5.86072 163.072 6.12872 151.638 6.53386 140.203C6.53619 140.138 6.56394 140.075 6.61126 140.03C6.65858 139.984 6.72177 139.958 6.78753 139.958C6.8533 139.958 6.9165 139.984 6.96382 140.03C7.01114 140.075 7.03888 140.138 7.0412 140.203H7.04125Z" fill="#020202"/>
<path d="M332.66 111.065C333.066 122.5 333.334 133.934 333.675 145.369L334.436 179.673C334.576 185.39 334.736 191.107 334.918 196.825C335.08 202.542 335.088 208.259 334.944 213.977L334.646 222.552C334.495 225.411 334.394 228.27 334.191 231.128C333.838 236.846 333.387 242.563 332.66 248.28C332.653 248.342 332.622 248.399 332.576 248.44C332.529 248.481 332.469 248.504 332.407 248.504C332.345 248.504 332.284 248.481 332.238 248.44C332.191 248.399 332.161 248.342 332.153 248.28C331.426 242.563 330.975 236.846 330.622 231.128C330.419 228.27 330.319 225.411 330.168 222.552L329.87 213.977C329.723 208.259 329.731 202.542 329.895 196.825C330.083 191.107 330.244 185.39 330.377 179.673L331.138 145.369C331.48 133.934 331.748 122.5 332.153 111.065C332.155 110.999 332.183 110.937 332.231 110.892C332.278 110.846 332.341 110.821 332.407 110.821C332.472 110.821 332.536 110.846 332.583 110.892C332.63 110.937 332.658 110.999 332.66 111.065H332.66Z" fill="#020202"/>
<path d="M287.27 140.203C287.675 151.638 287.943 163.072 288.284 174.507L289.046 208.811C289.185 214.528 289.346 220.245 289.528 225.963C289.689 231.68 289.698 237.397 289.553 243.115L289.255 251.691C289.104 254.549 289.004 257.408 288.8 260.267C288.448 265.984 287.997 271.701 287.27 277.418C287.262 277.48 287.232 277.537 287.185 277.578C287.138 277.619 287.078 277.642 287.016 277.642C286.954 277.642 286.894 277.619 286.847 277.578C286.8 277.537 286.77 277.48 286.762 277.418C286.035 271.701 285.585 265.984 285.232 260.267C285.029 257.408 284.928 254.549 284.777 251.691L284.479 243.115C284.332 237.397 284.341 231.68 284.505 225.963C284.693 220.245 284.853 214.528 284.987 208.811L285.748 174.507C286.089 163.072 286.357 151.638 286.762 140.203C286.765 140.138 286.793 140.075 286.84 140.03C286.887 139.984 286.95 139.959 287.016 139.959C287.082 139.959 287.145 139.984 287.192 140.03C287.239 140.075 287.267 140.138 287.27 140.203H287.27Z" fill="#020202"/>
<path d="M223.539 36.2031C222.21 36.1603 220.941 35.6357 219.97 34.727C218.982 33.8775 218.11 32.902 217.376 31.8254C216.636 30.7713 215.97 29.6665 215.385 28.519C214.79 27.376 214.261 26.1995 213.801 24.9953L215.059 25.3295C214.843 25.5138 214.592 25.6512 214.32 25.7328C214.048 25.8145 213.763 25.8387 213.481 25.8038C213.009 25.7311 212.563 25.5423 212.183 25.2545C211.521 24.7641 210.999 24.1097 210.667 23.3557C210.32 22.6257 210.162 21.8203 210.207 21.0133C210.253 20.1982 210.535 19.4142 211.018 18.7564C211.487 18.1401 212.087 17.6365 212.776 17.2824C213.133 17.0906 213.523 16.9678 213.926 16.9203C214.366 16.8701 214.809 16.9772 215.177 17.2225C215.768 17.7256 216.176 18.4102 216.338 19.1695C216.522 19.8581 216.634 20.5639 216.674 21.2756L216.458 21.0179C217.355 21.2033 218.288 21.074 219.101 20.6518C219.931 20.223 220.68 19.6522 221.313 18.9651C222.582 17.5524 223.662 15.9812 224.528 14.2908C225.424 12.6105 226.236 10.881 226.99 9.12531C227.743 7.37567 228.44 5.57261 229.028 3.78555C229.088 3.60354 229.204 3.44503 229.359 3.33246C229.514 3.21989 229.701 3.15897 229.892 3.15833C230.084 3.15769 230.271 3.21735 230.427 3.32887C230.582 3.4404 230.699 3.59813 230.76 3.77973L230.773 3.81741C231.6 6.31976 232.514 8.83275 233.516 11.2693C234.039 12.4781 234.587 13.6718 235.201 14.8104C235.744 15.9039 236.501 16.8766 237.428 17.6704L237.513 17.7315C237.585 17.7841 237.645 17.8516 237.69 17.9294C237.734 18.0072 237.761 18.0935 237.77 18.1827C237.922 19.8853 237.963 21.5727 237.951 23.2726C237.942 24.1242 237.887 24.9747 237.785 25.8202C237.715 26.6793 237.503 27.5207 237.157 28.3102C237.147 28.3301 237.13 28.3457 237.11 28.3539C237.089 28.3621 237.066 28.3623 237.045 28.3545C237.025 28.3467 237.007 28.3314 236.997 28.3116C236.987 28.2918 236.985 28.269 236.991 28.2475L236.993 28.2404C237.18 27.4379 237.253 26.6132 237.212 25.7903C237.19 24.9617 237.119 24.1342 237.051 23.3066C236.902 21.6538 236.651 19.9954 236.38 18.3696L236.721 18.8816C235.501 18.0513 234.489 16.9501 233.764 15.6639C233.042 14.4886 232.396 13.2682 231.829 12.0102C230.705 9.52636 229.765 6.96261 229.019 4.34L230.763 4.37185C230.073 6.23684 229.307 8.02062 228.467 9.7961C227.632 11.5742 226.67 13.2895 225.587 14.9285C224.517 16.5922 223.251 18.1217 221.816 19.4842C221.081 20.1679 220.246 20.7357 219.34 21.1681C218.407 21.6163 217.354 21.7528 216.338 21.5575C216.28 21.5456 216.228 21.5156 216.19 21.4717C216.151 21.4278 216.127 21.3726 216.123 21.3142L216.121 21.2996C216.079 20.6371 215.953 19.9826 215.746 19.3518C215.596 18.7606 215.248 18.2383 214.761 17.8714C213.878 17.4215 212.579 18.4913 212.008 19.4191C211.735 19.9212 211.596 20.4851 211.604 21.0567C211.612 21.6282 211.766 22.1881 212.053 22.6823C212.305 23.1804 212.667 23.6152 213.11 23.9543C213.279 24.0839 213.477 24.1716 213.687 24.2104C213.747 24.2222 213.808 24.2212 213.868 24.2072C213.927 24.1933 213.982 24.1668 214.031 24.1295L214.1 24.0811C214.271 23.962 214.482 23.9157 214.687 23.9522C214.891 23.9887 215.073 24.1052 215.192 24.2759C215.233 24.3341 215.265 24.3972 215.289 24.4637C215.691 25.604 216.189 26.7576 216.689 27.8835C217.204 29.0079 217.763 30.1112 218.381 31.1748C218.986 32.2379 219.701 33.2345 220.514 34.1486C221.286 35.0972 222.355 35.7581 223.548 36.0247C223.56 36.0265 223.571 36.0306 223.581 36.0368C223.591 36.0429 223.6 36.051 223.607 36.0605C223.614 36.0701 223.619 36.0809 223.622 36.0924C223.624 36.1039 223.625 36.1158 223.623 36.1274C223.62 36.1477 223.609 36.1662 223.594 36.1799C223.579 36.1937 223.559 36.2018 223.539 36.2031Z" fill="#020202"/>
<path d="M219.135 33.1263C219.212 33.7544 219.277 34.3825 219.335 35.0106C219.413 35.6638 219.408 36.3242 219.32 36.9761C219.118 38.3268 218.541 39.5934 217.653 40.6311C217.204 41.1555 216.683 41.6142 216.106 41.994C215.821 42.1822 215.526 42.3538 215.221 42.508L214.376 42.9295C213.246 43.4824 212.119 44.0446 210.968 44.5535C208.674 45.5921 206.293 46.4346 203.934 47.3145C202.748 47.7422 201.572 48.1888 200.408 48.6641C199.237 49.0715 198.117 49.6147 197.072 50.2827C195.108 51.7651 193.507 53.6755 192.391 55.869C191.205 58.0268 190.198 60.2784 189.38 62.6011C187.797 67.3006 186.535 72.1024 185.604 76.9734L185.056 76.1966C186.426 76.5495 187.818 76.8146 189.222 76.9902C189.924 77.08 190.631 77.1248 191.338 77.1241C192.044 77.1345 192.746 77.0271 193.417 76.8065C193.428 76.8022 193.44 76.8 193.451 76.8002C193.463 76.8003 193.475 76.8028 193.486 76.8075C193.496 76.8122 193.506 76.8189 193.514 76.8274C193.523 76.8358 193.529 76.8458 193.533 76.8568C193.541 76.8761 193.541 76.8973 193.535 76.917C193.529 76.9367 193.516 76.9537 193.499 76.9653C192.852 77.3454 192.138 77.595 191.395 77.7002C190.663 77.833 189.922 77.9021 189.178 77.9067C188.439 77.9223 187.7 77.8991 186.963 77.8372C186.224 77.778 185.501 77.7043 184.752 77.5753C184.586 77.5468 184.437 77.4571 184.335 77.324C184.232 77.1909 184.183 77.0241 184.198 76.8567L184.203 76.7982C184.442 74.2625 184.855 71.7461 185.438 69.2667C186.006 66.7801 186.771 64.3425 187.725 61.9769C188.644 59.5786 189.83 57.2915 191.261 55.1586C192.708 53.0141 194.572 51.1832 196.742 49.7752C197.848 49.1455 199 48.5997 200.188 48.1423C201.339 47.6432 202.47 47.0949 203.587 46.5198C205.832 45.3903 208.033 44.1746 210.302 43.1085C211.431 42.5653 212.58 42.0647 213.721 41.5433L214.578 41.1571C214.842 41.0449 215.099 40.9173 215.348 40.7749C215.839 40.4903 216.292 40.1445 216.695 39.7458C217.525 38.9276 218.133 37.911 218.46 36.7924C218.626 36.2117 218.726 35.6139 218.757 35.0107C218.815 34.3825 218.88 33.7544 218.957 33.1263C218.959 33.1045 218.97 33.0844 218.986 33.0698C219.003 33.0553 219.024 33.0472 219.046 33.0472C219.068 33.0472 219.089 33.0553 219.105 33.0698C219.122 33.0844 219.132 33.1045 219.135 33.1263L219.135 33.1263Z" fill="#020202"/>
<path d="M193.637 81.9163C194.141 83.6737 194.409 85.4902 194.435 87.3182C194.531 89.1411 194.545 90.9657 194.477 92.792C194.423 94.6175 194.304 96.4418 194.091 98.2643C193.914 100.117 193.572 101.951 193.069 103.743L192.28 102.699L203.447 102.077L214.618 101.548L225.79 101.067C229.513 100.889 233.238 100.787 236.96 100.459C235.137 100.874 233.285 101.171 231.435 101.433C229.585 101.714 227.73 101.94 225.872 102.145C222.158 102.555 218.437 102.884 214.714 103.159C210.991 103.453 207.263 103.646 203.537 103.857C199.808 104.026 196.081 104.199 192.347 104.288L192.335 104.289C192.231 104.291 192.127 104.273 192.029 104.235C191.931 104.198 191.842 104.141 191.766 104.069C191.691 103.996 191.63 103.91 191.588 103.814C191.545 103.719 191.522 103.615 191.52 103.511C191.518 103.42 191.531 103.33 191.559 103.244C192.073 101.552 192.465 99.825 192.731 98.0766C193.022 96.306 193.234 94.515 193.425 92.7217C193.598 90.9266 193.756 89.126 193.841 87.3208C193.969 85.5172 193.901 83.7051 193.637 81.9163Z" fill="#020202"/>
<path d="M238.882 103.859C235.698 104.399 221.577 104.109 214.271 103.917C214.271 103.917 229.897 90.831 229.946 85.9215C229.946 85.9215 235.392 99.9423 236.96 100.459L238.882 103.859Z" fill="#020202"/>
<path d="M185.716 77.0435C185.553 78.4415 185.308 79.816 185.037 81.1825C184.772 82.5507 184.461 83.9058 184.135 85.2563C183.806 86.6062 183.452 87.9486 183.072 89.2835C182.717 90.6257 182.28 91.9441 181.886 93.2749L181.878 93.3015C181.859 93.3631 181.833 93.4219 181.798 93.4762C180.857 94.9418 179.897 96.3963 178.891 97.8228C177.873 99.243 176.836 100.651 175.691 101.995C176.338 100.352 177.092 98.7739 177.866 97.2079C178.651 95.6482 179.482 94.1165 180.332 92.596L180.244 92.797C180.624 91.4623 180.963 90.1153 181.383 88.7921C181.776 87.4608 182.197 86.1378 182.646 84.8231C183.094 83.5081 183.559 82.1978 184.069 80.9006C184.572 79.6018 185.103 78.3108 185.716 77.0435Z" fill="#020202"/>
<path d="M192.983 99.468C193.226 99.9602 193.362 100.499 193.382 101.048C193.401 101.596 193.304 102.143 193.096 102.651C193.032 102.839 192.93 103.011 192.795 103.156C192.66 103.301 192.497 103.416 192.314 103.494C192.389 103.164 192.423 102.826 192.418 102.488C192.423 102.159 192.448 101.832 192.475 101.5C192.526 100.799 192.698 100.111 192.983 99.468Z" fill="#020202"/>
<path d="M210.846 103.859C212.881 103.049 214.818 102.01 216.618 100.762C218.391 99.5366 220.059 98.1663 221.605 96.6647C222.369 95.9042 223.141 95.1501 223.836 94.3185C224.599 93.5456 225.23 92.6614 225.942 91.8327C226.308 91.4251 226.604 90.9665 226.938 90.5317L227.937 89.2178C228.582 88.3237 229.19 87.4005 229.896 86.5142C229.546 87.577 229.137 88.6255 228.693 89.6619C228.171 90.6529 227.703 91.6895 227.082 92.6335C225.888 94.5676 224.466 96.3515 222.847 97.9471C221.203 99.5339 219.345 100.883 217.328 101.955C215.333 103.058 213.12 103.708 210.846 103.859Z" fill="#020202"/>
<path d="M201.888 47.244C202.744 42.2323 203.791 37.2753 204.857 32.3306L206.462 24.9299C206.735 23.701 207.016 22.4755 207.217 21.2534C207.31 20.6503 207.35 20.082 207.425 19.381C207.512 18.7353 207.635 18.0948 207.793 17.4628C208.42 14.9781 209.271 12.5557 210.337 10.2255C210.872 9.05903 211.487 7.93132 212.179 6.85055C212.863 5.74688 213.664 4.72006 214.568 3.78786C216.408 1.79571 218.917 0.551883 221.616 0.294214C222.294 0.242681 222.974 0.246054 223.651 0.304294C224.32 0.380959 224.983 0.505191 225.635 0.676044C226.922 1.01708 228.169 1.49388 229.355 2.09841L228.74 2.01696C230.14 1.73144 231.58 1.70893 232.987 1.95059C234.423 2.18746 235.779 2.77415 236.935 3.65891C237.51 4.10809 238.031 4.62186 238.489 5.19011C238.695 5.48517 238.879 5.79459 239.073 6.0973C239.278 6.38931 239.448 6.70452 239.579 7.03639C239.882 7.66883 240.117 8.33198 240.279 9.01446C240.464 9.67664 240.592 10.3533 240.663 11.0372C240.713 11.7138 240.825 12.3897 240.818 13.0629L240.762 15.076C240.696 16.3941 240.556 17.6465 240.527 18.9426C240.482 20.2255 240.503 21.5099 240.591 22.7906C240.584 24.0594 240.934 25.3046 241.602 26.3835L241.611 26.3948C241.624 26.4121 241.63 26.4337 241.629 26.4555C241.627 26.4773 241.617 26.4978 241.602 26.5129C241.586 26.5281 241.565 26.5369 241.543 26.5376C241.521 26.5384 241.5 26.5311 241.483 26.5171C240.991 26.0464 240.623 25.4618 240.41 24.8149C240.195 24.185 240.022 23.5415 239.893 22.8885C239.65 21.5901 239.497 20.2765 239.435 18.9571C239.348 17.652 239.35 16.3046 239.343 15.0244L239.271 13.1365C239.232 12.5109 239.105 11.9006 239.029 11.2842C238.939 10.6778 238.796 10.0804 238.602 9.49884C238.435 8.92337 238.216 8.3645 237.947 7.82936C237.836 7.55759 237.689 7.30177 237.51 7.06858C237.346 6.82904 237.194 6.58018 237.025 6.34615C236.653 5.91396 236.234 5.5239 235.777 5.18298C234.862 4.47484 233.785 4.00592 232.644 3.81862C231.487 3.59363 230.299 3.57289 229.135 3.75735L229.08 3.76676C228.889 3.79961 228.692 3.76762 228.521 3.67586C226.454 2.46095 224.102 1.81667 221.705 1.80887C219.296 1.90352 216.997 2.84935 215.219 4.47843C213.368 6.15494 211.877 8.19055 210.837 10.4615C209.747 12.726 209.001 15.1403 208.622 17.6248C208.527 18.2343 208.466 18.8487 208.439 19.4651C208.428 20.0272 208.44 20.7281 208.396 21.3843C208.288 22.6773 208.142 23.9513 207.932 25.2095C207.534 27.7317 206.953 30.2077 206.353 32.675C205.138 37.6063 203.746 42.4885 202.061 47.2891C202.054 47.3103 202.038 47.328 202.018 47.3385C201.999 47.3491 201.976 47.3518 201.954 47.3461C201.932 47.3404 201.913 47.3268 201.901 47.3078C201.889 47.2889 201.884 47.2661 201.888 47.2439L201.888 47.244Z" fill="#020202"/>
<path d="M170.148 105.133C170.406 104.549 170.756 104.01 171.187 103.539C171.627 103.052 172.135 102.632 172.697 102.293C173.846 101.623 175.137 101.236 176.465 101.165L176.399 101.17C177.307 101.071 178.224 101.084 179.129 101.209C180.024 101.33 180.901 101.563 181.738 101.901C182.576 102.242 183.355 102.715 184.044 103.302C184.724 103.875 185.278 104.581 185.673 105.378C184.99 104.896 184.267 104.475 183.512 104.119C182.789 103.785 182.034 103.526 181.259 103.347C179.734 102.982 178.167 102.832 176.601 102.901L176.535 102.906C175.414 102.906 174.301 103.082 173.235 103.426C172.69 103.609 172.163 103.842 171.662 104.124C171.136 104.426 170.63 104.763 170.148 105.133Z" fill="#020202"/>
<path d="M185.715 111.431C180.375 124.267 172.1 119.203 172.1 119.203C172.1 119.203 175.814 116.964 176.453 106.224C176.453 106.224 178.066 103.863 180.148 106.224C181.887 108.08 183.747 109.82 185.715 111.431Z" fill="white"/>
<path d="M185.792 111.412C185.609 112.072 185.38 112.835 185.102 113.619C184.795 114.353 184.444 115.01 184.089 115.705C183.891 116.036 183.661 116.351 183.439 116.671C183.227 117 182.99 117.312 182.728 117.604L181.909 118.461C181.613 118.73 181.302 118.982 180.977 119.215C179.665 120.174 178.072 120.668 176.448 120.621C174.883 120.569 173.352 120.154 171.975 119.409C171.94 119.391 171.911 119.364 171.89 119.332C171.868 119.299 171.855 119.262 171.852 119.223C171.849 119.184 171.856 119.146 171.872 119.11C171.888 119.075 171.912 119.044 171.943 119.021L171.976 118.997C172.825 118.261 173.467 117.314 173.836 116.253C174.252 115.192 174.568 114.095 174.778 112.976C174.913 112.424 174.987 111.854 175.103 111.299C175.184 110.733 175.273 110.169 175.341 109.602C175.391 109.031 175.456 108.463 175.496 107.891C175.518 107.317 175.571 106.746 175.613 106.175L175.617 106.126C175.626 105.989 175.676 105.858 175.758 105.749C176.143 105.194 176.686 104.769 177.317 104.53C177.655 104.404 178.016 104.35 178.376 104.371C178.736 104.391 179.088 104.486 179.409 104.65C179.941 104.942 180.405 105.342 180.773 105.825C181.082 106.198 181.397 106.573 181.722 106.944C182.374 107.684 183.047 108.418 183.726 109.151L184.744 110.258C185.095 110.647 185.403 110.951 185.792 111.412ZM185.639 111.45C185.207 111.217 184.79 110.954 184.392 110.666C183.972 110.384 183.558 110.092 183.155 109.787C182.344 109.182 181.554 108.546 180.796 107.862C180.413 107.526 180.041 107.171 179.681 106.798C179.414 106.502 179.092 106.261 178.734 106.086C178.606 106.024 178.466 105.991 178.324 105.99C178.182 105.988 178.042 106.019 177.913 106.078C177.614 106.224 177.352 106.436 177.148 106.699L177.293 106.274C177.242 106.868 177.201 107.462 177.129 108.053C177.053 108.644 176.951 109.234 176.863 109.823C176.758 110.411 176.631 110.997 176.512 111.582C176.353 112.162 176.225 112.746 176.024 113.315C175.648 114.461 175.151 115.564 174.543 116.605C173.961 117.683 173.174 118.636 172.225 119.409L172.226 118.998C172.859 119.343 173.546 119.582 174.257 119.704C174.612 119.762 174.972 119.787 175.332 119.78C175.688 119.787 176.043 119.759 176.393 119.696C177.756 119.445 179.044 118.886 180.158 118.061C181.3 117.22 182.314 116.218 183.17 115.087C183.568 114.49 184.033 113.89 184.425 113.305L185.639 111.45Z" fill="#020202"/>
<path d="M181.064 93.036C181.507 92.7686 181.993 92.5818 182.5 92.4844C182.996 92.3782 183.503 92.3251 184.01 92.326C185.035 92.312 186.047 92.5561 186.953 93.036C186.458 93.1245 185.957 93.1762 185.455 93.1907C184.967 93.2139 184.487 93.2169 184.006 93.2188C183.022 93.223 182.04 93.162 181.064 93.036Z" fill="#020202"/>
<path d="M141.637 139.3C140.85 139.498 140.109 139.846 139.455 140.327C138.789 140.794 138.164 141.317 137.587 141.892C136.428 143.045 135.361 144.287 134.394 145.606C132.469 148.262 130.689 151.021 129.06 153.869C125.758 159.548 122.877 165.467 120.036 171.397C117.215 177.339 114.552 183.359 111.987 189.42C109.415 195.476 106.858 201.549 104.462 207.67L104.326 206.925C106.546 209.438 108.906 211.873 111.334 214.21C113.757 216.555 116.307 218.765 118.973 220.83C121.583 222.941 124.496 224.647 127.613 225.891C129.138 226.502 130.8 226.691 132.424 226.439C133.212 226.268 133.951 225.92 134.585 225.42C135.218 224.92 135.73 224.283 136.08 223.556L136.083 223.551C136.102 223.512 136.131 223.48 136.166 223.455C136.2 223.43 136.241 223.413 136.283 223.407C137.832 223.199 139.403 223.219 140.946 223.466C142.492 223.696 143.988 224.19 145.367 224.927C146.057 225.296 146.712 225.728 147.324 226.217C147.924 226.721 148.476 227.28 148.972 227.887C149.476 228.485 149.924 229.129 150.311 229.809C150.712 230.479 150.986 231.214 151.328 231.915L151.082 231.712C154.43 232.021 157.807 231.697 161.035 230.756C164.276 229.849 167.385 228.521 170.282 226.807L172.412 225.458C173.13 225.02 173.769 224.465 174.451 223.975C175.797 222.967 177.087 221.886 178.316 220.739C178.966 220.204 179.524 219.569 180.117 218.974L181.878 217.166C182.98 215.894 184.044 214.587 185.129 213.3L184.974 213.859L181.421 187.27L179.673 173.972L177.995 160.665C177.977 160.526 177.992 160.385 178.037 160.253C178.082 160.12 178.157 160 178.255 159.901C178.354 159.801 178.474 159.726 178.606 159.68C178.738 159.633 178.879 159.618 179.017 159.634L179.03 159.636C185.369 160.377 191.743 160.772 198.125 160.82C204.508 160.926 210.889 160.542 217.213 159.672C223.494 158.731 229.79 157.284 235.433 154.353C238.269 152.927 240.822 150.997 242.968 148.657C245.095 146.272 246.59 143.39 247.315 140.276C247.32 140.253 247.334 140.234 247.354 140.221C247.374 140.208 247.398 140.204 247.42 140.209C247.443 140.214 247.463 140.227 247.476 140.247C247.489 140.266 247.494 140.29 247.49 140.313C246.874 143.513 245.466 146.507 243.395 149.021C241.295 151.522 238.739 153.6 235.863 155.146C233.011 156.703 230.002 157.954 226.886 158.876C223.786 159.816 220.625 160.542 217.426 161.049C211.039 162.039 204.585 162.536 198.122 162.537C194.895 162.566 191.668 162.475 188.447 162.291C185.221 162.106 182.019 161.855 178.786 161.461L179.82 160.431L181.546 173.732L183.202 187.042L186.457 213.669L186.462 213.707C186.473 213.8 186.465 213.894 186.437 213.984C186.41 214.073 186.364 214.156 186.303 214.227C185.172 215.527 184.063 216.844 182.915 218.125L181.082 219.947C180.487 220.571 179.861 221.163 179.205 221.721C177.916 222.866 176.566 223.941 175.161 224.939C174.449 225.425 173.781 225.974 173.034 226.407L170.815 227.736C167.802 229.418 164.586 230.705 161.245 231.566C157.895 232.45 154.413 232.716 150.968 232.351C150.92 232.346 150.874 232.328 150.835 232.3C150.796 232.272 150.764 232.234 150.743 232.191L150.722 232.148C150.397 231.476 150.141 230.764 149.762 230.121C149.399 229.469 148.976 228.851 148.499 228.277C148.033 227.696 147.513 227.16 146.946 226.676C146.367 226.206 145.747 225.79 145.092 225.433C143.775 224.716 142.344 224.231 140.862 224C139.38 223.769 137.873 223.761 136.389 223.977L136.592 223.828L135.884 224.944C135.575 225.264 135.294 225.615 134.956 225.904C134.262 226.477 133.439 226.873 132.559 227.059C130.821 227.355 129.036 227.177 127.391 226.543C124.182 225.319 121.162 223.645 118.423 221.572C115.67 219.557 113.032 217.391 110.52 215.082C108.002 212.78 105.574 210.405 103.237 207.894C103.148 207.798 103.087 207.679 103.062 207.55C103.037 207.421 103.048 207.288 103.095 207.165L103.101 207.15C105.462 200.978 107.918 194.858 110.534 188.796C113.169 182.745 115.901 176.735 118.793 170.799C121.682 164.861 124.805 159.03 128.248 153.382C129.958 150.546 131.849 147.822 133.909 145.228C134.943 143.927 136.077 142.708 137.3 141.583C137.913 141.017 138.58 140.51 139.289 140.07C139.992 139.608 140.779 139.287 141.605 139.125C141.628 139.121 141.651 139.126 141.67 139.14C141.689 139.153 141.702 139.173 141.707 139.196C141.711 139.219 141.706 139.243 141.693 139.262C141.68 139.282 141.66 139.295 141.637 139.3L141.637 139.3Z" fill="#020202"/>
<path d="M266.734 51.7342C268.044 51.297 269.418 51.0818 270.799 51.0975C272.21 51.0919 273.609 51.3541 274.923 51.8701C276.254 52.4328 277.44 53.2901 278.392 54.3775C279.328 55.4716 280.062 56.7237 280.559 58.0752C281.495 60.7389 281.943 63.5498 281.88 66.3726C281.824 69.1329 281.597 71.8871 281.201 74.6194C280.489 80.0397 279.631 85.4459 278.474 90.7948C277.394 96.1627 275.861 101.429 273.892 106.538C274.583 103.896 275.174 101.238 275.664 98.5625C276.189 95.8935 276.653 93.2142 277.105 90.5344C277.976 85.1684 278.751 79.7878 279.43 74.3927C279.838 71.7313 280.093 69.0486 280.194 66.358C280.319 63.7189 280 61.0775 279.252 58.5437C278.9 57.3002 278.304 56.1394 277.498 55.1292C276.692 54.1191 275.693 53.2799 274.559 52.6608C272.12 51.5118 269.374 51.1866 266.734 51.7342Z" fill="#020202"/>
<path d="M179.645 166.021C185.317 167.181 190.98 168.253 196.661 169.194L205.19 170.528C208.033 170.985 210.89 171.362 213.761 171.661C216.633 171.92 219.519 172.002 222.402 171.905C225.277 171.788 228.142 171.476 230.976 170.973C233.788 170.485 236.56 169.786 239.268 168.882C241.953 168.016 244.52 166.82 246.91 165.321L246.943 165.303L247.059 165.246C248.156 164.679 249.185 163.989 250.125 163.189C251.107 162.363 252.039 161.48 252.917 160.544C254.666 158.619 256.225 156.529 257.57 154.304C258.944 152.063 260.18 149.74 261.27 147.348L262.814 143.693C263.277 142.451 263.729 141.203 264.217 139.961L264.219 139.957C264.227 139.936 264.243 139.919 264.263 139.909C264.284 139.899 264.307 139.898 264.328 139.904C264.35 139.911 264.368 139.925 264.379 139.945C264.391 139.964 264.394 139.987 264.389 140.009C264.097 141.31 263.768 142.604 263.45 143.906C263.075 145.189 262.66 146.464 262.236 147.737C261.342 150.28 260.243 152.747 258.95 155.112C257.658 157.51 256.099 159.754 254.304 161.802C253.836 162.303 253.371 162.808 252.885 163.294C252.368 163.751 251.886 164.242 251.333 164.664C250.251 165.596 249.044 166.371 247.747 166.968L247.895 166.892C242.756 169.831 237.028 171.592 231.125 172.047C225.335 172.505 219.522 172.625 213.718 172.404C210.816 172.348 207.915 172.201 205.015 171.962C202.12 171.7 199.245 171.261 196.392 170.719C190.676 169.68 185.057 168.166 179.594 166.192C179.571 166.184 179.553 166.167 179.543 166.146C179.533 166.124 179.532 166.1 179.541 166.077C179.549 166.057 179.564 166.041 179.583 166.03C179.602 166.02 179.624 166.017 179.645 166.021Z" fill="#020202"/>
<path d="M184.01 103.859C188.617 103.489 193.225 103.296 197.832 103.165C202.44 103.022 207.047 102.984 211.655 102.966C216.262 102.982 220.87 103.02 225.477 103.162C230.085 103.293 234.692 103.487 239.3 103.859C234.692 104.231 230.085 104.425 225.477 104.556C220.87 104.698 216.262 104.736 211.655 104.752C207.047 104.734 202.44 104.696 197.832 104.553C193.225 104.422 188.617 104.229 184.01 103.859Z" fill="#020202"/>
<path d="M258.692 106.537L256.375 106.497C254.561 108.066 252.313 109.048 249.929 109.311C248.367 109.445 246.795 109.242 245.318 108.716C243.842 108.19 242.496 107.352 241.371 106.261L185.672 105.378C186.955 106.99 187.724 108.951 187.878 111.006C187.878 111.006 186.956 114.617 179.809 105.811C179.809 105.811 176.964 104.684 176.365 106.403C175.774 108.129 176.302 121.759 167.563 119.977C167.563 119.977 166.097 110.265 170.147 105.133L162.935 105.019V106.101C162.935 106.753 162.806 107.398 162.557 108.001C162.307 108.603 161.942 109.15 161.481 109.611C161.02 110.072 160.473 110.438 159.871 110.687C159.269 110.937 158.624 111.065 157.972 111.065H123.484L123.787 116.351C123.787 116.004 123.803 115.807 123.803 115.807H137.924L126.805 126.993H109.5C107.976 126.992 106.514 126.391 105.43 125.32C104.346 124.249 103.727 122.794 103.707 121.27L103.581 111.065H69.4401C68.7885 111.065 68.1431 110.937 67.541 110.687C66.939 110.438 66.3919 110.072 65.9311 109.611C65.4702 109.15 65.1047 108.603 64.8553 108.001C64.6059 107.399 64.4776 106.753 64.4776 106.101V103.494H50.9639L0.544922 133.544C24.8088 133.331 49.0726 133.215 73.3363 133.197C97.6081 133.11 121.872 133.197 146.136 133.228C170.4 133.236 194.664 133.402 218.935 133.528L255.327 133.757L291.593 134.095L303.224 127.229L314.997 120.324L338.568 106.537L258.692 106.537ZM231.749 123.485L175.593 123.083L178.91 119.599L185.483 111.968H240.614L231.749 123.485Z" fill="black"/>
<path d="M123.488 110.943C126.967 110.823 130.445 110.74 133.924 110.66C137.403 110.577 140.881 110.482 144.36 110.441L154.796 110.281L157.404 110.241C157.615 110.236 157.853 110.238 158.043 110.227C158.224 110.22 158.404 110.202 158.583 110.17C158.939 110.112 159.285 110.008 159.613 109.859C160.264 109.56 160.826 109.096 161.244 108.514C161.662 107.932 161.922 107.251 161.997 106.538L161.891 85.7583C161.858 78.7989 161.879 71.8396 161.954 64.8802L162.28 44.002L162.452 33.563C162.495 32.9659 162.419 32.3662 162.229 31.7986C162.038 31.231 161.737 30.7069 161.343 30.2566C160.949 29.8062 160.469 29.4386 159.932 29.1751C159.394 28.9116 158.81 28.7573 158.213 28.7213C157.385 28.6867 156.485 28.6962 155.625 28.6898C141.711 28.6205 127.796 28.7508 113.882 28.9538C99.9676 29.181 86.0532 29.3359 72.1389 29.4186L69.5301 29.4336C68.8493 29.4285 68.179 29.6005 67.5848 29.9328C67.0025 30.2645 66.5176 30.7435 66.1787 31.3218C65.8398 31.9 65.6588 32.5572 65.6539 33.2275L65.7115 43.6551L65.7403 64.5333L65.6187 85.4114L65.4125 106.255C65.4327 106.971 65.6403 107.669 66.0147 108.28C66.389 108.89 66.917 109.392 67.5458 109.734C68.1965 110.085 68.9271 110.261 69.666 110.244L72.2749 110.288L82.7107 110.463C89.6679 110.587 96.6251 110.747 103.582 110.943C103.613 110.944 103.642 110.957 103.664 110.979C103.685 111.001 103.697 111.031 103.697 111.061C103.697 111.092 103.685 111.122 103.664 111.144C103.642 111.166 103.613 111.179 103.582 111.18C96.625 111.376 89.6678 111.536 82.7107 111.66L72.2749 111.835L69.666 111.879C68.6575 111.923 67.6543 111.71 66.75 111.261C65.8288 110.795 65.0483 110.092 64.4886 109.224C63.9289 108.356 63.6102 107.355 63.5653 106.324L63.3404 85.4114L63.2188 64.5332L63.2476 43.6551L63.3102 33.2047C63.3289 32.1264 63.6309 31.0721 64.1859 30.1476C64.741 29.223 65.5294 28.4609 66.4721 27.9377C67.4095 27.4266 68.4626 27.1653 69.5301 27.1791L72.1389 27.1941C86.0532 27.2632 99.9675 27.4181 113.882 27.659C127.796 27.8619 141.711 27.9922 155.625 27.923C156.504 27.9283 157.344 27.8998 158.254 27.9178C159.201 27.9555 160.121 28.245 160.919 28.7566C161.721 29.2705 162.372 29.9865 162.809 30.8326C163.027 31.2559 163.19 31.7055 163.294 32.1703C163.381 32.6294 163.424 33.0956 163.423 33.5629L163.596 44.0019L163.921 64.8801C163.992 71.8395 164.013 78.7989 163.984 85.7583L163.942 96.1974L163.899 101.417L163.877 104.027L163.865 105.332L163.859 105.984C163.858 106.198 163.839 106.486 163.819 106.733C163.7 107.758 163.312 108.733 162.694 109.56C162.075 110.386 161.249 111.034 160.3 111.437C159.829 111.634 159.334 111.767 158.828 111.833C158.577 111.869 158.324 111.887 158.07 111.888C157.826 111.893 157.628 111.884 157.404 111.882L154.796 111.842L144.36 111.682C140.881 111.641 137.402 111.546 133.924 111.464C130.445 111.383 126.967 111.3 123.488 111.18C123.458 111.179 123.429 111.166 123.407 111.144C123.386 111.122 123.374 111.092 123.374 111.062C123.374 111.031 123.386 111.001 123.407 110.979C123.429 110.957 123.458 110.944 123.488 110.943V110.943Z" fill="#020202"/>
<path d="M122.236 68.046C122.26 70.6143 121.395 73.1119 119.788 75.1152C118.924 76.1365 117.838 76.9468 116.614 77.4845C115.389 78.0222 114.058 78.273 112.721 78.2178C110.092 78.0459 107.63 76.8634 105.852 74.9176C104.061 73.0565 102.983 70.6235 102.807 68.0461C102.716 66.7173 102.906 65.3841 103.363 64.1332C103.821 62.8823 104.536 61.7417 105.463 60.7853C106.4 59.8071 107.519 59.0226 108.758 58.4762C110.005 57.9302 111.354 57.6539 112.715 57.6651C114.076 57.6764 115.42 57.975 116.658 58.5416C117.876 59.0998 118.951 59.9281 119.802 60.9637C121.413 62.969 122.273 65.4738 122.236 68.046ZM122.057 68.046C122.047 66.8244 121.755 65.6215 121.204 64.5316C120.657 63.4745 119.896 62.5426 118.97 61.795C117.206 60.3553 114.998 59.5695 112.721 59.5706C110.468 59.5795 108.3 60.4374 106.651 61.9735C104.983 63.5771 103.963 65.7386 103.785 68.046C103.707 69.2328 103.88 70.4228 104.294 71.5377C104.721 72.6618 105.393 73.6766 106.261 74.508C107.132 75.2965 108.153 75.9 109.264 76.2821C110.374 76.6641 111.55 76.8168 112.721 76.7307C115.014 76.6153 117.209 75.7669 118.984 74.3104C119.91 73.5604 120.671 72.6259 121.217 71.5662C121.768 70.4745 122.056 69.2689 122.057 68.046Z" fill="#020202"/>
<path d="M155.79 103.856C153.061 104.171 150.333 104.33 147.605 104.434C144.878 104.548 142.15 104.569 139.423 104.573C136.696 104.548 133.968 104.502 131.242 104.365C128.515 104.238 125.788 104.055 123.062 103.715C125.791 103.398 128.519 103.239 131.247 103.135C133.975 103.021 136.702 103 139.43 102.998C142.157 103.025 144.884 103.071 147.611 103.208C150.337 103.336 153.064 103.518 155.79 103.856Z" fill="#020202"/>
<path d="M103.487 103.628C100.831 103.943 98.1753 104.102 95.5198 104.207C92.8642 104.322 90.209 104.344 87.554 104.349C84.8991 104.324 82.2441 104.279 79.5895 104.143C76.9349 104.016 74.2807 103.833 71.627 103.494C74.2835 103.177 76.9393 103.017 79.5947 102.912C82.2502 102.798 84.9054 102.776 87.5606 102.773C90.2156 102.8 92.8705 102.845 95.5249 102.982C98.1795 103.109 100.834 103.291 103.487 103.628Z" fill="#020202"/>
<path d="M136.336 223.692C137.345 219.165 138.564 214.698 139.867 210.258C141.163 205.814 142.589 201.411 144.084 197.029C145.615 192.66 147.203 188.307 149.014 184.035C149.911 181.896 150.865 179.778 151.907 177.698C152.447 176.666 152.983 175.633 153.599 174.64C154.156 173.61 154.899 172.692 155.789 171.931C155.393 172.347 155.059 172.819 154.799 173.332C154.521 173.834 154.268 174.347 154.035 174.874C153.559 175.919 153.124 176.984 152.707 178.056C151.864 180.198 151.093 182.371 150.314 184.54L148.032 191.07L145.771 197.612C144.247 201.969 142.753 206.339 141.188 210.687C139.636 215.04 138.051 219.384 136.336 223.692Z" fill="#020202"/>
<path d="M151.025 232.032C150.497 228.186 150.144 224.334 149.854 220.479C149.553 216.624 149.356 212.765 149.179 208.905C149.036 205.044 148.914 201.182 148.897 197.315C148.869 193.45 148.904 189.581 149.116 185.705C149.647 189.55 150 193.403 150.29 197.258C150.591 201.113 150.788 204.972 150.962 208.832C151.104 212.693 151.225 216.555 151.241 220.422C151.269 224.287 151.235 228.156 151.025 232.032Z" fill="#020202"/>
<path d="M226.199 22.2178C226.546 22.2059 226.875 22.0595 227.117 21.8095C227.358 21.5595 227.493 21.2255 227.493 20.8778C227.493 20.5301 227.358 20.1961 227.117 19.9461C226.875 19.6961 226.546 19.5497 226.199 19.5378C225.851 19.5497 225.522 19.6961 225.281 19.9461C225.039 20.1961 224.904 20.5301 224.904 20.8778C224.904 21.2255 225.039 21.5595 225.281 21.8095C225.522 22.0595 225.851 22.2059 226.199 22.2178Z" fill="#020202"/>
<path d="M234.156 22.2178C234.503 22.2059 234.832 22.0595 235.074 21.8095C235.315 21.5595 235.45 21.2255 235.45 20.8778C235.45 20.5301 235.315 20.1961 235.074 19.9461C234.832 19.6961 234.503 19.5497 234.156 19.5378C233.809 19.5497 233.479 19.6961 233.238 19.9461C232.996 20.1961 232.861 20.5301 232.861 20.8778C232.861 21.2255 232.996 21.5595 233.238 21.8095C233.479 22.0595 233.809 22.2059 234.156 22.2178Z" fill="#020202"/>
<path d="M236.488 17.8226C236.076 17.8888 235.661 17.933 235.244 17.955C234.867 17.9864 234.515 17.9869 234.161 17.9948C233.808 17.9996 233.455 17.9874 233.078 17.9674C232.657 17.9535 232.239 17.9051 231.826 17.8226C232.076 17.4348 232.435 17.1296 232.857 16.9454C233.264 16.756 233.708 16.657 234.156 16.6553C234.605 16.6536 235.049 16.7491 235.458 16.9354C235.887 17.1133 236.248 17.4243 236.488 17.8226Z" fill="#020202"/>
<path d="M227.245 17.8227C226.897 17.9267 226.541 17.9999 226.18 18.0414C225.879 18.0816 225.577 18.1019 225.273 18.1019C224.973 18.1014 224.672 18.0814 224.374 18.0421C224.012 18.0035 223.654 17.93 223.307 17.8227C223.5 17.4676 223.803 17.1847 224.17 17.0166C224.513 16.8429 224.893 16.7556 225.278 16.7623C225.66 16.7595 226.038 16.8475 226.38 17.0191C226.749 17.1845 227.053 17.467 227.245 17.8227Z" fill="#020202"/>
<path d="M232.87 23.772C232.87 23.9853 232.826 24.1963 232.741 24.3919C232.655 24.5874 232.531 24.7632 232.374 24.9082C232.063 25.2117 231.673 25.4216 231.249 25.514C230.842 25.6002 230.421 25.5971 230.015 25.505C229.618 25.4145 229.248 25.2342 228.932 24.978C229.303 24.8973 229.68 24.841 230.059 24.8094C230.407 24.7467 230.744 24.7307 231.053 24.643C231.723 24.5118 232.348 24.212 232.87 23.772Z" fill="#020202"/>
<path d="M227.77 29.2007C227.853 29.0044 227.976 28.8274 228.131 28.6808C228.286 28.5342 228.469 28.4212 228.67 28.3489C229.075 28.1912 229.516 28.1505 229.942 28.2315C230.351 28.3115 230.737 28.4791 231.075 28.7228C231.405 28.9612 231.675 29.2721 231.866 29.6315C231.492 29.5602 231.123 29.4647 230.762 29.3455C230.417 29.267 230.101 29.1502 229.782 29.1098C229.114 28.9686 228.422 28.9998 227.77 29.2007Z" fill="#020202"/>
<path d="M208.104 171.582V236.475C208.104 236.475 221.605 241.822 229.896 236.475V171.582" fill="#020202"/>
<path d="M249.86 236.804C249.829 237.136 249.729 237.458 249.569 237.751C249.408 238.043 249.189 238.3 248.926 238.505C248.416 238.935 247.855 239.3 247.256 239.593C246.059 240.179 244.812 240.655 243.528 241.013C240.966 241.746 238.358 242.306 235.722 242.69C230.446 243.486 225.123 243.926 219.789 244.007C214.44 244.128 209.09 243.876 203.776 243.252C201.1 242.927 198.449 242.413 195.846 241.712C194.515 241.35 193.221 240.867 191.978 240.268C191.319 239.951 190.701 239.553 190.14 239.083C189.767 238.831 189.462 238.492 189.251 238.094C189.04 237.697 188.93 237.254 188.93 236.804C188.93 236.354 189.04 235.91 189.251 235.513C189.461 235.115 189.766 234.776 190.139 234.523C190.7 234.054 191.318 233.656 191.978 233.338C193.22 232.739 194.515 232.256 195.845 231.895C198.448 231.191 201.099 230.676 203.776 230.353C209.089 229.727 214.44 229.474 219.789 229.597C225.123 229.678 230.446 230.119 235.722 230.917C238.358 231.301 240.967 231.861 243.528 232.594C244.812 232.953 246.059 233.429 247.256 234.015C247.855 234.308 248.416 234.673 248.926 235.103C249.189 235.308 249.408 235.565 249.569 235.857C249.729 236.15 249.829 236.472 249.86 236.804ZM249.86 236.804C249.826 236.473 249.725 236.152 249.563 235.862C249.4 235.571 249.18 235.317 248.916 235.114C248.404 234.69 247.842 234.329 247.242 234.042C246.044 233.466 244.795 233 243.512 232.652C240.944 231.961 238.33 231.454 235.691 231.136C230.414 230.517 225.1 230.267 219.789 230.389C214.491 230.471 209.205 230.909 203.967 231.699C201.367 232.079 198.796 232.631 196.269 233.352C195.033 233.697 193.831 234.154 192.679 234.719C192.139 234.981 191.634 235.309 191.174 235.694C190.972 235.801 190.803 235.96 190.685 236.156C190.567 236.352 190.504 236.576 190.504 236.804C190.504 237.033 190.566 237.257 190.684 237.453C190.802 237.648 190.971 237.808 191.173 237.915C191.633 238.3 192.139 238.628 192.678 238.891C193.831 239.455 195.033 239.912 196.269 240.257C198.795 240.981 201.366 241.534 203.966 241.912C209.205 242.705 214.491 243.142 219.789 243.223C225.1 243.344 230.414 243.094 235.691 242.473C238.331 242.155 240.944 241.648 243.512 240.956C244.795 240.608 246.044 240.143 247.242 239.566C247.842 239.279 248.404 238.918 248.916 238.494C249.18 238.291 249.4 238.037 249.563 237.746C249.725 237.456 249.826 237.135 249.86 236.804Z" fill="#020202"/>
<path d="M258.22 41.4077L247.4 39.1611V44.1195C247.403 50.5189 246.335 56.8735 244.24 62.9203L241.736 70.1435L250.122 85.4704C250.122 85.4704 267.613 86.8135 269.197 86.6795C269.198 86.6795 272.373 43.3943 258.22 41.4077ZM248.259 75.9744C248.149 74.729 248.062 73.4834 248.054 72.23C248.019 70.9764 248.106 69.7223 248.314 68.4856C248.393 69.7312 248.551 70.9609 248.669 72.1985L249.047 75.8956C249.268 78.3709 249.489 80.8461 249.52 83.3529C248.905 80.9308 248.483 78.4635 248.259 75.9744ZM252.16 83.2346C251.853 83.2245 251.563 83.0955 251.349 82.8748C251.136 82.6542 251.016 82.3592 251.016 82.0522C251.016 81.7452 251.136 81.4502 251.349 81.2296C251.563 81.0089 251.853 80.8799 252.16 80.8698C252.467 80.8798 252.758 81.0088 252.971 81.2294C253.185 81.4501 253.304 81.7451 253.304 82.0522C253.304 82.3593 253.185 82.6544 252.971 82.875C252.758 83.0957 252.467 83.2246 252.16 83.2347V83.2346ZM257.07 83.8889C256.763 83.878 256.473 83.7487 256.26 83.5282C256.048 83.3076 255.929 83.013 255.929 82.7065C255.929 82.4 256.048 82.1054 256.26 81.8848C256.473 81.6643 256.763 81.5349 257.07 81.5241C257.376 81.5349 257.666 81.6642 257.879 81.8848C258.092 82.1054 258.211 82.3999 258.211 82.7065C258.211 83.013 258.092 83.3076 257.879 83.5282C257.666 83.7488 257.376 83.8781 257.07 83.8889V83.8889ZM261.672 84.1412C261.365 84.131 261.074 84.002 260.861 83.7814C260.647 83.5607 260.528 83.2658 260.528 82.9588C260.528 82.6518 260.647 82.3568 260.861 82.1361C261.074 81.9155 261.365 81.7865 261.672 81.7763C261.978 81.7864 262.269 81.9154 262.483 82.1361C262.696 82.3567 262.815 82.6517 262.815 82.9588C262.815 83.2658 262.696 83.5608 262.483 83.7814C262.269 84.0021 261.978 84.1311 261.672 84.1412V84.1412ZM266.29 84.5353C265.983 84.5252 265.692 84.3962 265.479 84.1755C265.265 83.9549 265.146 83.6599 265.146 83.3529C265.146 83.0459 265.265 82.7509 265.479 82.5303C265.692 82.3097 265.983 82.1806 266.29 82.1705C266.596 82.1806 266.887 82.3096 267.101 82.5302C267.314 82.7509 267.433 83.0459 267.433 83.3529C267.433 83.6599 267.314 83.9549 267.101 84.1756C266.887 84.3962 266.596 84.5252 266.29 84.5353Z" fill="#020202"/>
<path d="M240.326 36.4374C241.557 36.7473 242.763 37.1487 243.935 37.6382C245.1 38.1131 246.236 38.5915 247.403 39.1647C246.109 39.1527 244.83 38.8824 243.642 38.3695C242.442 37.9039 241.323 37.2519 240.326 36.4374Z" fill="#020202"/>
<path d="M218.07 57.1236C218.974 55.5091 220.006 53.9698 221.156 52.5206C222.278 51.0495 223.518 49.672 224.863 48.4017C223.961 50.0172 222.929 51.5566 221.777 53.0047C220.654 54.4748 219.414 55.8522 218.07 57.1236Z" fill="#020202"/>
<path d="M107.46 207.727C107.767 207.717 108.057 207.587 108.27 207.367C108.483 207.146 108.602 206.851 108.602 206.545C108.602 206.238 108.483 205.943 108.27 205.723C108.057 205.502 107.767 205.373 107.46 205.362C107.154 205.373 106.864 205.502 106.65 205.723C106.437 205.943 106.318 206.238 106.318 206.545C106.318 206.851 106.437 207.146 106.65 207.367C106.864 207.587 107.154 207.717 107.46 207.727Z" fill="#020202"/>
<path d="M111.29 211.842C111.597 211.831 111.887 211.702 112.1 211.482C112.313 211.261 112.432 210.966 112.432 210.66C112.432 210.353 112.313 210.058 112.1 209.838C111.887 209.617 111.597 209.488 111.29 209.477C110.984 209.488 110.694 209.617 110.481 209.838C110.268 210.058 110.148 210.353 110.148 210.66C110.148 210.966 110.268 211.261 110.481 211.482C110.694 211.702 110.984 211.831 111.29 211.842Z" fill="#020202"/>
<path d="M115.687 215.957C115.993 215.946 116.284 215.817 116.497 215.597C116.71 215.376 116.829 215.081 116.829 214.774C116.829 214.468 116.71 214.173 116.497 213.952C116.284 213.732 115.993 213.603 115.687 213.592C115.38 213.603 115.09 213.732 114.877 213.952C114.664 214.173 114.545 214.468 114.545 214.774C114.545 215.081 114.664 215.376 114.877 215.597C115.09 215.817 115.38 215.946 115.687 215.957Z" fill="#020202"/>
<path d="M120.511 219.93C120.817 219.919 121.108 219.79 121.321 219.569C121.534 219.349 121.653 219.054 121.653 218.747C121.653 218.441 121.534 218.146 121.321 217.926C121.108 217.705 120.817 217.576 120.511 217.565C120.205 217.576 119.914 217.705 119.701 217.926C119.488 218.146 119.369 218.441 119.369 218.747C119.369 219.054 119.488 219.349 119.701 219.569C119.914 219.79 120.205 219.919 120.511 219.93Z" fill="#020202"/>
<path d="M126.042 223.477C126.349 223.467 126.639 223.337 126.852 223.117C127.065 222.896 127.184 222.602 127.184 222.295C127.184 221.988 127.065 221.693 126.852 221.473C126.639 221.252 126.349 221.123 126.042 221.112C125.736 221.123 125.446 221.252 125.233 221.473C125.019 221.693 124.9 221.988 124.9 222.295C124.9 222.602 125.019 222.896 125.233 223.117C125.446 223.337 125.736 223.467 126.042 223.477Z" fill="#020202"/>
<path d="M132.142 224.471C132.448 224.46 132.739 224.331 132.952 224.11C133.165 223.89 133.284 223.595 133.284 223.288C133.284 222.981 133.165 222.687 132.952 222.466C132.739 222.245 132.448 222.116 132.142 222.106C131.836 222.116 131.545 222.245 131.332 222.466C131.119 222.687 131 222.981 131 223.288C131 223.595 131.119 223.89 131.332 224.11C131.545 224.331 131.836 224.46 132.142 224.471Z" fill="#020202"/>
<path d="M138.384 221.775C138.691 221.764 138.981 221.635 139.194 221.414C139.407 221.194 139.526 220.899 139.526 220.592C139.526 220.285 139.407 219.991 139.194 219.77C138.981 219.549 138.691 219.42 138.384 219.41C138.078 219.42 137.787 219.549 137.574 219.77C137.361 219.991 137.242 220.285 137.242 220.592C137.242 220.899 137.361 221.194 137.574 221.414C137.787 221.635 138.078 221.764 138.384 221.775Z" fill="#020202"/>
<path d="M143.773 223.052C144.079 223.041 144.37 222.912 144.583 222.691C144.796 222.471 144.915 222.176 144.915 221.869C144.915 221.562 144.796 221.268 144.583 221.047C144.37 220.826 144.079 220.697 143.773 220.687C143.466 220.697 143.176 220.826 142.963 221.047C142.75 221.268 142.631 221.562 142.631 221.869C142.631 222.176 142.75 222.471 142.963 222.691C143.176 222.912 143.466 223.041 143.773 223.052Z" fill="#020202"/>
<path d="M148.595 225.748C148.902 225.737 149.192 225.608 149.405 225.387C149.618 225.167 149.737 224.872 149.737 224.565C149.737 224.258 149.618 223.964 149.405 223.743C149.192 223.523 148.902 223.393 148.595 223.383C148.289 223.393 147.998 223.523 147.785 223.743C147.572 223.964 147.453 224.258 147.453 224.565C147.453 224.872 147.572 225.167 147.785 225.387C147.998 225.608 148.289 225.737 148.595 225.748Z" fill="#020202"/>
<path d="M153.136 230.714C153.442 230.703 153.733 230.574 153.946 230.353C154.159 230.133 154.278 229.838 154.278 229.531C154.278 229.225 154.159 228.93 153.946 228.709C153.733 228.489 153.442 228.36 153.136 228.349C152.83 228.36 152.539 228.489 152.326 228.709C152.113 228.93 151.994 229.225 151.994 229.531C151.994 229.838 152.113 230.133 152.326 230.353C152.539 230.574 152.83 230.703 153.136 230.714Z" fill="#020202"/>
<path d="M158.951 229.862C159.257 229.852 159.547 229.723 159.76 229.502C159.973 229.281 160.092 228.987 160.092 228.68C160.092 228.373 159.973 228.079 159.76 227.858C159.547 227.637 159.257 227.508 158.951 227.498C158.644 227.508 158.354 227.637 158.141 227.858C157.928 228.079 157.809 228.373 157.809 228.68C157.809 228.987 157.928 229.281 158.141 229.502C158.354 229.723 158.644 229.852 158.951 229.862Z" fill="#020202"/>
<path d="M164.767 228.302C165.073 228.291 165.364 228.162 165.577 227.941C165.79 227.721 165.909 227.426 165.909 227.119C165.909 226.812 165.79 226.518 165.577 226.297C165.364 226.077 165.073 225.947 164.767 225.937C164.461 225.947 164.17 226.077 163.957 226.297C163.744 226.518 163.625 226.812 163.625 227.119C163.625 227.426 163.744 227.721 163.957 227.941C164.17 228.162 164.461 228.291 164.767 228.302Z" fill="#020202"/>
<path d="M169.449 226.173C169.755 226.163 170.045 226.033 170.258 225.813C170.471 225.592 170.591 225.298 170.591 224.991C170.591 224.684 170.471 224.389 170.258 224.169C170.045 223.948 169.755 223.819 169.449 223.808C169.142 223.819 168.852 223.948 168.639 224.169C168.426 224.389 168.307 224.684 168.307 224.991C168.307 225.298 168.426 225.592 168.639 225.813C168.852 226.033 169.142 226.163 169.449 226.173Z" fill="#020202"/>
<path d="M174.554 222.626C174.86 222.615 175.151 222.486 175.364 222.265C175.577 222.045 175.696 221.75 175.696 221.443C175.696 221.137 175.577 220.842 175.364 220.621C175.151 220.401 174.86 220.272 174.554 220.261C174.248 220.272 173.957 220.401 173.744 220.621C173.531 220.842 173.412 221.137 173.412 221.443C173.412 221.75 173.531 222.045 173.744 222.265C173.957 222.486 174.248 222.615 174.554 222.626Z" fill="#020202"/>
<path d="M178.951 218.369C179.257 218.358 179.547 218.229 179.76 218.009C179.973 217.788 180.092 217.493 180.092 217.187C180.092 216.88 179.973 216.585 179.76 216.365C179.547 216.144 179.257 216.015 178.951 216.004C178.644 216.015 178.354 216.144 178.141 216.365C177.928 216.585 177.809 216.88 177.809 217.187C177.809 217.493 177.928 217.788 178.141 218.009C178.354 218.229 178.644 218.358 178.951 218.369Z" fill="#020202"/>
<path d="M182.497 214.112C182.804 214.102 183.094 213.973 183.307 213.752C183.52 213.531 183.639 213.237 183.639 212.93C183.639 212.623 183.52 212.328 183.307 212.108C183.094 211.887 182.804 211.758 182.497 211.747C182.191 211.758 181.901 211.887 181.688 212.108C181.475 212.328 181.355 212.623 181.355 212.93C181.355 213.237 181.475 213.531 181.688 213.752C181.901 213.973 182.191 214.102 182.497 214.112Z" fill="#020202"/>
<path d="M266.643 86.5358C266.186 88.7194 265.619 90.8788 264.946 93.0056C264.286 95.1504 263.459 97.2401 262.473 99.2556C261.491 101.304 260.262 103.224 258.814 104.973C257.338 106.782 255.461 108.222 253.33 109.177C251.132 110.134 248.686 110.361 246.349 109.824C244.024 109.271 241.915 108.04 240.289 106.287L239.679 105.639L239.157 104.968C238.812 104.518 238.45 104.08 238.135 103.611L237.162 102.223L236.254 100.797C235.076 98.8824 234.006 96.9031 233.05 94.8684C231.134 90.8218 229.54 86.6306 228.281 82.3337C227.011 78.0549 226.014 73.6993 225.298 69.2937C224.594 64.8866 224.184 60.4377 224.07 55.9762C223.999 53.7359 224.067 51.4934 224.271 49.2615C224.398 48.1435 224.529 47.0229 224.766 45.9109C224.974 44.7577 225.321 43.634 225.799 42.5644L225.751 42.6708C226.023 41.9061 226.36 41.1658 226.757 40.458C227.149 39.7504 227.602 39.0785 228.112 38.45C228.628 37.8105 229.211 37.2288 229.852 36.7151C230.509 36.195 231.23 35.7614 231.997 35.4249L231.807 35.5382C232.451 34.9692 233.047 34.3482 233.589 33.6814C234.121 33.0375 234.569 32.3278 234.921 31.5697C235.08 31.2206 235.192 30.8523 235.255 30.4742C235.291 29.9977 235.351 29.5234 235.436 29.0533L235.577 28.6173C235.648 28.4557 235.732 28.3006 235.83 28.1537C235.958 27.9663 236.123 27.8073 236.316 27.6866C236.508 27.5659 236.723 27.486 236.948 27.4519C237.372 27.401 237.8 27.502 238.157 27.7367C238.326 27.8431 238.477 27.9747 238.606 28.1271C238.814 28.3594 238.934 28.6568 238.946 28.9682L237.256 28.9209C237.279 28.5841 237.345 28.2516 237.452 27.9314C237.568 27.5637 237.762 27.2256 238.022 26.9409C238.352 26.5951 238.801 26.3878 239.279 26.361C239.674 26.3457 240.067 26.4199 240.429 26.5782L239.233 27.2173C239.28 26.9696 239.35 26.7265 239.439 26.4907C239.543 26.2053 239.696 25.9404 239.892 25.7086C240.046 25.5282 240.243 25.3884 240.464 25.3013C240.732 25.1961 241.028 25.1829 241.305 25.2637C241.656 25.3758 241.968 25.5845 242.206 25.8657L241.05 25.7186C241.343 25.5242 241.668 25.3837 242.009 25.3039C242.237 25.2532 242.471 25.2465 242.701 25.2841C242.997 25.3329 243.271 25.471 243.486 25.68C243.792 26.0057 243.976 26.427 244.008 26.8728C244.023 27.0328 244.03 27.1935 244.028 27.3541L244.013 27.7279C243.963 28.7087 243.861 29.6861 243.706 30.6559C243.471 32.701 242.754 34.6612 241.615 36.3758C241.253 36.8542 240.968 37.135 240.646 37.5106L239.706 38.5747L237.825 40.7029L234.039 44.9388L234.256 44.1616C235.523 51.7652 237.676 59.1941 240.671 66.2966C242.173 69.8424 243.9 73.3154 245.684 76.7562L248.383 81.9115L251.161 87.0815C251.17 87.0983 251.172 87.118 251.167 87.1364C251.162 87.1548 251.15 87.1706 251.134 87.1805C251.117 87.1904 251.098 87.1936 251.079 87.1895C251.061 87.1854 251.044 87.1743 251.034 87.1584L250.982 87.0815C249.952 85.541 248.909 83.824 247.906 82.1835C246.899 80.5214 245.89 78.8596 244.927 77.1702C242.996 73.7948 241.108 70.3875 239.44 66.8444C237.804 63.2866 236.4 59.6269 235.236 55.8881C234.653 54.0191 234.123 52.1341 233.647 50.2331C233.19 48.3287 232.783 46.4135 232.425 44.4875C232.399 44.3523 232.405 44.2131 232.441 44.0804C232.477 43.9476 232.542 43.8247 232.633 43.7209L232.642 43.7101L236.396 39.4313L238.285 37.3021L239.229 36.2376C239.526 35.8948 239.906 35.4973 240.109 35.2136C241.049 33.7417 241.653 32.0812 241.88 30.3496C242.036 29.4489 242.145 28.5405 242.204 27.6282L242.223 27.2919C242.23 27.1996 242.215 27.1409 242.217 27.0632C242.209 26.9384 242.151 26.8532 242.232 26.9591C242.277 27.001 242.332 27.0301 242.392 27.0435C242.435 27.0435 242.411 27.0438 242.379 27.0465C242.259 27.0775 242.144 27.1254 242.038 27.1889L242.01 27.2063C241.833 27.3179 241.623 27.3627 241.416 27.3326C241.209 27.3024 241.02 27.1993 240.882 27.0418C240.819 26.9697 240.712 26.9043 240.832 26.9614C240.92 26.9782 241.011 26.9715 241.096 26.942C241.133 26.9279 241.167 26.9071 241.196 26.8807C241.141 26.955 241.097 27.0369 241.065 27.1239C241.013 27.2574 240.971 27.3948 240.94 27.5348C240.912 27.6584 240.859 27.7747 240.784 27.8761C240.708 27.9775 240.612 28.0616 240.501 28.123C240.39 28.1843 240.268 28.2215 240.142 28.2319C240.016 28.2424 239.889 28.2259 239.77 28.1836L239.743 28.174C239.63 28.1211 239.507 28.0904 239.382 28.0835C239.314 28.0895 239.318 28.0799 239.257 28.1299C239.169 28.2333 239.103 28.3536 239.063 28.4835C239.004 28.6559 238.964 28.8345 238.945 29.0159L237.255 28.9686C237.263 29.2162 237.333 29.2102 237.309 29.2056C237.292 29.1848 237.271 29.1667 237.248 29.1519C237.187 29.1093 237.137 29.1107 237.169 29.1095C237.204 29.1112 237.231 29.0604 237.181 29.1217C237.161 29.1496 237.136 29.2067 237.108 29.2527L237.037 29.4626C236.95 29.8058 236.955 30.1288 236.867 30.7369C236.775 31.2529 236.615 31.7546 236.393 32.2294C235.967 33.1117 235.424 33.933 234.78 34.6717C234.16 35.3978 233.479 36.0705 232.746 36.6826C232.697 36.7241 232.641 36.7585 232.582 36.7848L232.556 36.796C231.904 37.0649 231.288 37.4154 230.724 37.8392C230.15 38.2762 229.625 38.774 229.159 39.3241C228.686 39.8846 228.256 40.4804 227.873 41.1063C227.492 41.7298 227.162 42.3837 226.888 43.0613C226.874 43.0969 226.856 43.1348 226.839 43.168C226.386 44.1189 226.043 45.1181 225.815 46.1465C225.56 47.2104 225.361 48.2867 225.216 49.3711C224.942 51.5602 224.803 53.7641 224.8 55.9703C224.81 60.4026 225.156 64.8278 225.833 69.208C226.553 73.5815 227.64 77.8864 229.084 82.077C230.502 86.2632 232.242 90.3332 234.288 94.2504C235.304 96.2057 236.401 98.1094 237.581 99.9614L238.479 101.337L239.425 102.675C239.732 103.129 240.082 103.546 240.415 103.976L240.919 104.619L241.453 105.182C242.852 106.729 244.68 107.825 246.704 108.329C248.731 108.815 250.858 108.654 252.789 107.868C254.744 107.023 256.488 105.758 257.899 104.163C259.352 102.537 260.6 100.74 261.616 98.8112C262.65 96.8643 263.564 94.8559 264.352 92.7971C265.146 90.7317 265.826 88.6193 266.47 86.4921C266.473 86.4808 266.479 86.4703 266.486 86.4612C266.493 86.4521 266.503 86.4445 266.513 86.4389C266.523 86.4332 266.534 86.4297 266.546 86.4285C266.558 86.4272 266.57 86.4283 266.581 86.4316C266.602 86.4382 266.62 86.4525 266.632 86.4718C266.643 86.491 266.647 86.5138 266.643 86.5358Z" fill="#020202"/>
<path d="M110.644 214.313C109.63 218.415 107.745 222.25 105.119 225.559C103.766 227.237 102.122 228.657 100.265 229.751C99.3232 230.322 98.4416 230.726 97.541 231.264L94.8634 232.817C91.31 234.93 87.7298 237.032 84.1882 239.199C80.6304 241.341 77.1558 243.62 73.7581 246.003L73.8615 245.846C73.6895 247.011 73.8524 248.201 74.3313 249.276C74.8261 250.321 75.6713 251.159 76.7199 251.644C76.9758 251.777 77.2425 251.887 77.5171 251.975L78.3592 252.201C78.9368 252.303 79.5196 252.373 80.105 252.412C80.7 252.397 81.2896 252.427 81.8831 252.378L83.6631 252.189L83.4681 252.248C87.0032 250.384 90.568 248.583 94.1627 246.845C97.7582 245.099 101.361 243.376 105.104 241.889C106.036 241.514 106.993 241.171 107.963 240.844L108.721 240.627C108.986 240.539 109.26 240.477 109.537 240.441L109.993 240.38L110.22 240.353L110.382 240.346C110.603 240.348 110.824 240.334 111.044 240.305C112.922 240.033 114.724 239.378 116.338 238.381C117.993 237.392 119.467 236.127 120.696 234.642C121.914 233.119 122.851 231.391 123.464 229.54L123.473 229.512L123.481 229.494C123.841 228.803 124.189 228.098 124.514 227.387C124.856 226.688 125.135 225.96 125.346 225.211L125.347 225.204C125.352 225.185 125.364 225.167 125.381 225.156C125.397 225.145 125.418 225.141 125.438 225.145C125.458 225.148 125.475 225.159 125.487 225.175C125.499 225.192 125.504 225.212 125.502 225.232C125.377 226.019 125.168 226.791 124.881 227.535C124.614 228.281 124.329 229.017 124.024 229.751L124.041 229.705C123.052 233.749 120.541 237.256 117.032 239.495C116.163 240.066 115.243 240.554 114.284 240.953C113.311 241.373 112.289 241.671 111.243 241.839C110.97 241.885 110.693 241.913 110.416 241.922L110.205 241.933L110.061 241.961L109.779 242.012C109.562 242.044 109.349 242.098 109.144 242.173L108.467 242.38C107.554 242.707 106.638 243.053 105.727 243.438C103.903 244.192 102.078 244.978 100.268 245.797C98.4523 246.606 96.6342 247.415 94.8273 248.251L84.0066 253.32L83.9595 253.342C83.9129 253.364 83.8626 253.377 83.8112 253.38L81.927 253.482C81.298 253.496 80.6608 253.43 80.0314 253.406C79.3979 253.329 78.7693 253.215 78.1488 253.066L77.2303 252.765C76.9267 252.65 76.6331 252.511 76.3524 252.348C75.1899 251.734 74.278 250.734 73.7736 249.52C73.2914 248.324 73.1516 247.019 73.3696 245.748C73.3744 245.717 73.3855 245.688 73.4023 245.661C73.419 245.635 73.4411 245.612 73.467 245.595L73.473 245.591C76.9222 243.27 80.3426 240.908 83.7343 238.505C87.1489 236.131 90.5561 233.736 94.1446 231.606C95.9016 230.513 97.826 229.548 99.6089 228.577C101.361 227.597 102.934 226.326 104.26 224.818C105.617 223.291 106.81 221.625 107.819 219.848C108.862 218.066 109.756 216.2 110.492 214.27L110.494 214.265C110.501 214.246 110.515 214.231 110.533 214.222C110.551 214.213 110.572 214.212 110.591 214.218C110.611 214.224 110.627 214.237 110.636 214.255C110.646 214.273 110.649 214.293 110.643 214.313L110.644 214.313Z" fill="#020202"/>
<path d="M73.6154 245.797C73.6154 245.797 67.5916 255.206 80.3057 259.195C80.3057 259.195 87.7904 261.179 99.8342 249.105C99.8342 249.105 105.335 243.851 106.814 244.044L105.017 248.921L111.482 251.149L119.326 247.528L123.237 231.146C122.06 233.759 120.253 236.04 117.98 237.785C115.706 239.529 113.036 240.683 110.208 241.143C100.233 242.971 92.453 249.048 83.7373 252.784C83.7373 252.784 72.4834 254.761 73.6154 245.797Z" fill="#020202"/>
<path d="M81.623 240.391C81.623 240.391 89.2095 240.945 90.4823 249.467L97.7193 246.038C97.7193 246.038 96.3849 235.59 87.1352 236.79C87.1353 236.79 84.0464 236.26 81.623 240.391Z" fill="#020202"/>
<path d="M160.08 224.166C161.209 228.237 161.454 232.503 160.797 236.676C160.442 238.801 159.707 240.846 158.629 242.711C158.062 243.655 157.518 244.457 156.995 245.366L155.432 248.039C153.375 251.626 151.29 255.217 149.27 258.845C147.23 262.463 145.307 266.148 143.545 269.907L143.558 269.709C143.978 270.808 144.697 271.768 145.634 272.478C146.577 273.153 147.728 273.471 148.883 273.374C150.048 273.266 151.18 272.922 152.209 272.363C153.261 271.805 154.261 271.153 155.197 270.416L155.056 270.564C157.945 266.07 160.946 261.658 164.023 257.286C165.573 255.107 167.153 252.95 168.843 250.854C169.691 249.778 170.602 248.754 171.571 247.786C171.858 247.506 172.175 247.258 172.516 247.048C172.772 246.906 173.018 246.748 173.252 246.573C173.744 246.195 174.201 245.773 174.619 245.313C176.327 243.388 177.568 241.094 178.243 238.61C178.951 236.092 179.101 233.45 178.684 230.868C177.861 225.584 177.209 220.296 176.56 215C176.558 214.979 176.564 214.958 176.576 214.942C176.589 214.926 176.607 214.915 176.628 214.912C176.649 214.909 176.669 214.915 176.686 214.927C176.703 214.94 176.714 214.958 176.717 214.979C177.544 220.245 178.313 225.53 179.27 230.762C179.897 233.431 179.919 236.206 179.335 238.885C178.733 241.602 177.492 244.137 175.715 246.279C175.256 246.826 174.75 247.33 174.202 247.786C173.911 248.022 173.603 248.236 173.281 248.427C173.063 248.579 172.859 248.751 172.672 248.94C171.774 249.875 170.93 250.862 170.145 251.894C168.513 253.97 166.936 256.112 165.356 258.25C162.197 262.528 159.133 266.89 156.054 271.234L156.037 271.258C156.002 271.306 155.96 271.348 155.912 271.382C154.884 272.117 153.787 272.749 152.636 273.269C151.466 273.813 150.2 274.12 148.912 274.171C147.593 274.212 146.301 273.786 145.266 272.966C144.26 272.158 143.495 271.089 143.055 269.875C143.044 269.842 143.039 269.808 143.042 269.774C143.044 269.74 143.053 269.706 143.068 269.676C144.957 265.971 146.763 262.23 148.536 258.466C150.343 254.719 152.133 250.958 154.211 247.337C155.207 245.523 156.402 243.733 157.513 242.032C158.547 240.309 159.283 238.424 159.691 236.455C160.134 234.459 160.353 232.42 160.345 230.375C160.376 228.31 160.236 226.245 159.926 224.203L159.926 224.198C159.923 224.178 159.927 224.158 159.939 224.142C159.95 224.125 159.968 224.114 159.987 224.109C160.007 224.105 160.028 224.109 160.045 224.119C160.062 224.13 160.074 224.147 160.08 224.166L160.08 224.166Z" fill="#020202"/>
<path d="M143.306 269.791C143.306 269.791 142.684 280.947 155.716 278.169C155.716 278.169 163.209 276.217 167.763 259.779C167.763 259.779 169.971 252.499 171.354 251.94L172.186 257.071L178.911 255.832L183.963 248.822L179.318 232.632C179.577 235.487 179.125 238.361 178.002 240.998C176.879 243.636 175.121 245.954 172.884 247.745C165.097 254.242 161.307 263.359 155.554 270.899C155.554 270.899 146.725 278.154 143.306 269.791Z" fill="#020202"/>
<path d="M147.623 261.146C147.623 261.146 154.501 257.897 159.798 264.693L164.415 258.148C164.415 258.148 158.119 249.706 150.654 255.299C150.654 255.299 147.703 256.357 147.623 261.146Z" fill="#020202"/>
<path d="M125.95 125.714C125.971 125.737 125.99 125.762 126.007 125.788L126.012 125.794L126.019 125.802L126.956 126.866C126.98 126.894 126.996 126.927 127.002 126.963C127.008 126.999 127.003 127.036 126.989 127.07C126.975 127.103 126.952 127.132 126.923 127.153C126.893 127.175 126.858 127.187 126.821 127.189L126.805 127.19C122.36 127.453 117.916 127.614 113.472 127.698L110.138 127.756C109.538 127.783 108.936 127.752 108.341 127.663C107.403 127.504 106.512 127.141 105.731 126.599C104.95 126.057 104.297 125.349 103.82 124.527C103.195 123.439 102.895 122.195 102.955 120.942C103.021 116.495 103.187 112.047 103.229 107.601C103.249 103.154 103.155 98.7094 102.946 94.2659C102.9 93.6848 102.911 93.1005 102.977 92.5214C103.054 91.9213 103.219 91.3357 103.466 90.7835C103.96 89.6555 104.769 88.6942 105.796 88.0152C106.837 87.3264 108.054 86.9506 109.303 86.9322L112.636 86.8697L115.969 86.8269C117.887 86.8045 119.739 87.5276 121.135 88.8439C122.53 90.1601 123.361 91.9668 123.451 93.8834C123.971 102.76 124.295 111.647 124.421 120.546L124.421 120.576L124.421 120.596C124.395 121.027 124.419 121.459 124.492 121.885C124.564 122.33 124.669 122.769 124.805 123.199C125.094 124.069 125.475 124.907 125.941 125.697C125.947 125.707 125.951 125.718 125.953 125.73C125.955 125.741 125.954 125.753 125.951 125.765C125.949 125.776 125.944 125.787 125.937 125.796C125.93 125.806 125.921 125.814 125.911 125.82C125.892 125.831 125.87 125.835 125.848 125.831C125.826 125.827 125.807 125.815 125.793 125.798C125.506 125.425 125.239 125.038 124.992 124.637C124.748 124.23 124.53 123.809 124.339 123.374C124.148 122.934 123.99 122.48 123.866 122.017C123.731 121.536 123.656 121.04 123.641 120.541L123.641 120.591C122.742 111.737 122.046 102.87 121.551 93.9923C121.507 93.0332 121.231 92.099 120.747 91.27C120.255 90.4436 119.559 89.7574 118.727 89.2773C117.887 88.7936 116.938 88.5324 115.969 88.5186L112.636 88.4758L109.303 88.4133C108.306 88.3782 107.32 88.6254 106.458 89.1263C105.595 89.6273 104.892 90.3616 104.429 91.2448C104.188 91.6931 104.018 92.1753 103.923 92.675C103.832 93.1968 103.793 93.7261 103.806 94.2555C103.702 98.7028 103.715 103.149 103.847 107.593C103.999 112.037 104.275 116.48 104.45 120.924C104.438 121.906 104.694 122.873 105.191 123.721C105.687 124.548 106.403 125.22 107.259 125.664C107.685 125.886 108.142 126.044 108.614 126.132C109.118 126.214 109.628 126.247 110.138 126.23L113.472 126.288C117.916 126.372 122.36 126.532 126.805 126.796L126.653 127.119L125.856 125.913L125.868 125.927C125.837 125.879 125.809 125.829 125.784 125.781C125.774 125.762 125.772 125.741 125.777 125.721C125.782 125.701 125.794 125.683 125.811 125.671C125.828 125.66 125.849 125.654 125.87 125.657C125.89 125.659 125.909 125.669 125.923 125.685L125.95 125.714Z" fill="#020202"/>
<path d="M147.594 147.178C147.954 147.751 148.229 148.372 148.412 149.023C148.592 149.642 148.717 150.276 148.785 150.917C148.855 151.557 148.867 152.203 148.821 152.846C148.78 153.521 148.641 154.187 148.408 154.822C148.047 154.25 147.771 153.628 147.588 152.977C147.408 152.358 147.284 151.724 147.218 151.083C147.149 150.443 147.138 149.797 147.184 149.154C147.226 148.479 147.364 147.813 147.594 147.178Z" fill="white"/>
</svg>
