<svg width="320" height="38" viewBox="0 0 320 38" fill="none" xmlns="http://www.w3.org/2000/svg">
<path d="M0 37C9.11429 23.1905 37.9486 -1.17349 80.3714 11.8469C133.4 28.1224 130.086 31.0815 157.429 34.0408C179.303 36.4081 201.343 22.204 209.629 14.806C219.019 8.72328 242.771 -2.35723 262.657 1.98291C282.543 6.32305 308.505 20.2313 319 26.6429" stroke="#F0B44F" stroke-width="0.7" stroke-linecap="round" stroke-dasharray="4 4"/>
</svg>
