<svg width="40" height="21" viewBox="0 0 40 21" fill="none" xmlns="http://www.w3.org/2000/svg">
<path fill-rule="evenodd" clip-rule="evenodd" d="M37.8714 3.58793C30.3639 17.5479 15.367 23.2234 1.43811 15.3643C0.974413 15.1026 0.386395 15.2662 0.124697 15.7242C-0.137001 16.1903 0.0265778 16.7791 0.490274 17.0408C15.4202 25.4724 31.5219 19.4616 39.5692 4.50388C39.8211 4.03772 39.6452 3.44882 39.1766 3.1953C38.708 2.94996 38.1233 3.12178 37.8714 3.58793Z" fill="#1B1B1B"/>
<path d="M13.1598 9.37712C14.7105 9.37712 15.9677 8.11997 15.9677 6.56917C15.9677 5.01838 14.7105 3.76123 13.1598 3.76123C11.609 3.76123 10.3518 5.01838 10.3518 6.56917C10.3518 8.11997 11.609 9.37712 13.1598 9.37712Z" fill="#1B1B1B"/>
<path d="M24.7841 6.39016C26.3046 6.39016 27.5372 5.15758 27.5372 3.6371C27.5372 2.11661 26.3046 0.884033 24.7841 0.884033C23.2636 0.884033 22.031 2.11661 22.031 3.6371C22.031 5.15758 23.2636 6.39016 24.7841 6.39016Z" fill="#1B1B1B"/>
</svg>
