<svg width="29" height="27" viewBox="0 0 29 27" fill="none" xmlns="http://www.w3.org/2000/svg">
<path fill-rule="evenodd" clip-rule="evenodd" d="M14.5 23.2502L7.86284 26.7395C7.06847 27.1571 6.08595 26.8517 5.66832 26.0573C5.50202 25.741 5.44464 25.3787 5.50505 25.0265L6.77262 17.6359L1.40309 12.4019C0.760425 11.7755 0.747275 10.7467 1.37371 10.104C1.62317 9.84809 1.95002 9.68155 2.30368 9.63016L9.7242 8.5519L13.0428 1.82776C13.4399 1.02298 14.4143 0.69255 15.2191 1.08974C15.5396 1.2479 15.799 1.50729 15.9572 1.82776L19.2757 8.5519L26.6962 9.63016C27.5844 9.75922 28.1997 10.5838 28.0707 11.4719C28.0193 11.8256 27.8527 12.1525 27.5968 12.4019L22.2273 17.6359L23.4949 25.0265C23.6466 25.911 23.0525 26.7511 22.1679 26.9028C21.8157 26.9632 21.4534 26.9058 21.1371 26.7395L14.5 23.2502Z" fill="#FFA800"/>
</svg>
