<svg width="18" height="20" viewBox="0 0 18 20" fill="none" xmlns="http://www.w3.org/2000/svg">
<path d="M5.9737 10.3706C4.38123 10.3706 3.0947 11.6572 3.11824 13.2339C3.13393 14.2459 3.6909 15.1245 4.51067 15.6148C4.23218 15.1873 4.06744 14.6813 4.0596 14.1361C4.03606 12.5593 5.32259 11.2728 6.91506 11.2728C7.22885 11.2728 7.53087 11.3238 7.81327 11.414V8.2565C7.5191 8.21335 7.21708 8.18982 6.91506 8.18982C6.89937 8.18982 6.8876 8.18982 6.87191 8.18982V10.5118C6.58951 10.4216 6.28749 10.3706 5.9737 10.3706Z" fill="#F00044"/>
<path d="M12.8574 0.9021H12.8339H12.0181C12.2534 2.08272 12.9163 3.11038 13.842 3.80855C13.234 3.00447 12.8653 2.00035 12.8574 0.9021Z" fill="#F00044"/>
<path d="M17.6584 5.70702C17.3485 5.70702 17.0504 5.67564 16.7563 5.62073V7.88392C15.6894 7.88392 14.6539 7.67603 13.6811 7.26026C13.0536 6.99355 12.4691 6.6523 11.9318 6.24046L11.9475 13.2183C11.9396 14.7872 11.3199 16.2581 10.1981 17.3681C9.2842 18.2703 8.12711 18.8469 6.87197 19.0312C6.57779 19.0743 6.27577 19.0979 5.97375 19.0979C4.63231 19.0979 3.35363 18.6625 2.31421 17.8584C2.43188 17.9996 2.55739 18.1369 2.69468 18.2703C3.82431 19.3842 5.32264 20 6.91903 20C7.22105 20 7.52307 19.9765 7.81725 19.9333C9.0724 19.749 10.2295 19.1724 11.1434 18.2703C12.2652 17.1602 12.8849 15.6894 12.8928 14.1204L12.8339 7.14259C13.3674 7.55444 13.9518 7.89961 14.5833 8.1624C15.5599 8.57425 16.5954 8.78605 17.6584 8.78605" fill="#F00044"/>
<path d="M2.6829 9.92745C3.80076 8.81743 5.28733 8.20162 6.87195 8.18986V7.3544C6.57778 7.31125 6.27576 7.28772 5.97374 7.28772C4.37343 7.28772 2.87117 7.90353 1.74154 9.02532C0.631514 10.1275 -0.00390429 11.6337 1.80523e-05 13.1987C1.80523e-05 14.7755 0.62367 16.2542 1.74938 17.3721C1.92981 17.5486 2.11416 17.7133 2.31028 17.8623C1.42383 16.8072 0.941379 15.4893 0.937457 14.1008C0.941379 12.5358 1.57288 11.0296 2.6829 9.92745Z" fill="#08FFF9"/>
<path d="M16.7563 5.62059V4.78121H16.7485C15.6581 4.78121 14.6539 4.42036 13.8459 3.80847C14.548 4.73414 15.5757 5.3931 16.7563 5.62059Z" fill="#08FFF9"/>
<path d="M6.75432 16.9131C7.12694 16.9327 7.48387 16.8817 7.81335 16.7758C8.95083 16.4032 9.77059 15.3442 9.77059 14.0969L9.77452 9.4293V0.902138H12.0181C11.9593 0.607962 11.9279 0.309865 11.924 0H8.83316V8.52324L8.82923 13.1908C8.82923 14.4381 8.00946 15.4972 6.87199 15.8698C6.54251 15.9796 6.18558 16.0306 5.81296 16.0071C5.33835 15.9796 4.89513 15.8384 4.51074 15.6109C4.99319 16.3561 5.81688 16.8621 6.75432 16.9131Z" fill="#08FFF9"/>
<path d="M6.872 19.0311C8.12715 18.8468 9.28424 18.2702 10.1981 17.3681C11.3199 16.2581 11.9397 14.7872 11.9475 13.2182L11.9318 6.2404C12.4653 6.65225 13.0497 6.99741 13.6812 7.26021C14.6578 7.67206 15.6933 7.88386 16.7563 7.88386V5.62067C15.5757 5.39318 14.548 4.73422 13.8459 3.80855C12.9202 3.11038 12.2534 2.08272 12.022 0.9021H9.77453V9.42534L9.77061 14.0929C9.77061 15.3402 8.95084 16.3993 7.81336 16.7719C7.48388 16.8817 7.12695 16.9327 6.75433 16.9092C5.81297 16.8582 4.9932 16.3522 4.51075 15.6109C3.69098 15.1245 3.13401 14.242 3.11832 13.23C3.09479 11.6532 4.38131 10.3667 5.97378 10.3667C6.28757 10.3667 6.58959 10.4177 6.872 10.5079V8.18588C5.28737 8.19765 3.80081 8.81346 2.68294 9.92348C1.57292 11.0257 0.937502 12.5318 0.941424 14.0929C0.941424 15.4814 1.42387 16.7993 2.31424 17.8544C3.35758 18.6585 4.63234 19.0939 5.97378 19.0939C6.2758 19.0978 6.57782 19.0743 6.872 19.0311Z" fill="black"/>
</svg>
