<svg width="20" height="20" viewBox="0 0 20 20" fill="none" xmlns="http://www.w3.org/2000/svg">
<path d="M6.28961 18.1254C13.8368 18.1254 17.9648 11.8726 17.9648 6.45021C17.9648 6.27263 17.9648 6.09583 17.9528 5.91982C18.7559 5.33892 19.4491 4.61974 20 3.79583C19.2511 4.12767 18.4566 4.34525 17.6432 4.44142C18.4996 3.92876 19.141 3.12181 19.4472 2.17181C18.6418 2.64974 17.7605 2.98662 16.8416 3.16783C16.0657 2.34279 14.9821 1.87439 13.8497 1.87439C11.5965 1.87439 9.74246 3.72845 9.74246 5.98158C9.74246 6.29415 9.77816 6.60576 9.84879 6.91021C6.55121 6.74494 3.47457 5.18517 1.39199 2.62302C0.309023 4.48732 0.869375 6.90333 2.66238 8.1006C2.00945 8.08126 1.37055 7.90509 0.8 7.58701V7.639C0.800547 9.58486 2.18465 11.2761 4.09199 11.6614C3.48793 11.8261 2.85398 11.8502 2.23922 11.7318C2.77543 13.3992 4.32168 14.5485 6.07281 14.5814C4.62008 15.7231 2.82449 16.3433 0.976797 16.3414C0.650313 16.3408 0.324141 16.321 0 16.2822C1.87633 17.4863 4.06016 18.1252 6.28961 18.1222" fill="#1DA1F2"/>
</svg>
