<svg width="22" height="22" viewBox="0 0 22 22" fill="none" xmlns="http://www.w3.org/2000/svg">
<path d="M1.37626 4.77759C2.09814 4.77759 3.19814 4.77759 3.81689 4.77759C4.12626 4.77759 4.36689 4.98384 4.47001 5.25884C4.77939 6.15259 5.46689 8.11196 6.25751 9.45259C7.32314 11.2057 8.01064 11.8588 8.45751 11.7901C8.90439 11.687 8.76689 10.5182 8.76689 9.59009C8.76689 8.66196 8.87001 7.08071 8.42314 6.35884L7.73564 5.36196C7.56376 5.12134 7.73564 4.81196 8.01064 4.81196H11.9294C12.3075 4.81196 12.6169 5.12134 12.6169 5.49946V10.4838C12.6169 10.4838 12.7888 11.3776 13.7513 10.4495C14.7138 9.52134 15.745 7.80259 16.6044 6.04946L16.9481 5.22446C17.0513 4.98384 17.2919 4.81196 17.5669 4.81196H20.1106C20.5919 4.81196 20.9356 5.29321 20.7638 5.74009L20.4888 6.46196C20.4888 6.46196 19.5606 8.31821 18.5981 9.62446C17.6356 10.9651 17.4294 11.2745 17.5669 11.6182C17.7044 11.962 20.1794 14.2651 20.7981 15.3651C20.97 15.6745 21.1075 15.9495 21.245 16.1901C21.4856 16.637 21.1419 17.2213 20.6263 17.2213H17.7388C17.4981 17.2213 17.2575 17.0838 17.1544 16.8776L16.8794 16.4307C16.8794 16.4307 15.1263 14.3682 14.0606 13.7151C12.9606 13.0963 12.995 13.9901 12.995 13.9901V15.812C12.995 16.5682 12.3763 17.187 11.62 17.187H10.9325C10.9325 17.187 7.15126 17.187 4.12626 12.6838C1.75439 9.17759 0.963763 6.90884 0.688763 5.60259C0.620013 5.19009 0.929388 4.77759 1.37626 4.77759Z" fill="#5181B8"/>
</svg>
