<svg width="20" height="20" viewBox="0 0 20 20" fill="none" xmlns="http://www.w3.org/2000/svg">
<g clip-path="url(#clip0_356:1130)">
<path d="M9.95256 0.1521C11.5129 0.1521 12.9976 0.5096 14.3298 1.1521C14.5391 1.24647 14.7485 1.35929 14.9573 1.4721L14.0438 2.28116L12.6744 0.870225L10.3151 2.93897L8.92506 1.44991L4.586 5.30679L7.36413 8.33554L6.27975 9.27616L9.02038 12.3049L7.936 13.2449L11.8563 17.553L14.1766 15.4458L16.1948 17.704C15.7948 18.0049 15.3573 18.3065 14.8823 18.5696C13.3821 19.4092 11.6914 19.8493 9.97225 19.8477C4.47194 19.8477 6.27131e-05 15.428 6.27131e-05 9.99147C-0.0193123 4.59179 4.45319 0.1521 9.95256 0.1521ZM8.12506 9.38898L10.5038 7.28179L12.6357 9.63335L10.2563 11.7402L8.12506 9.38898ZM9.81881 13.4524L12.1782 11.3268L14.3288 13.678L11.9497 15.7852L9.81881 13.4524ZM6.43256 5.3821L8.80756 3.27491L10.9388 5.62647L8.55975 7.73335L6.43256 5.3821ZM10.7898 4.24991L12.5626 2.67304L14.1613 4.42304L12.3913 6.02179L10.7898 4.24991ZM13.946 11.4927L15.7188 9.91554L17.3176 11.6833L15.5476 13.2646L13.946 11.4927ZM15.5063 15.049L17.2763 13.4683L18.8738 15.2184L17.1044 16.8171L15.5063 15.049ZM16.2298 6.92179L17.4094 5.86804L18.4751 7.03491L17.2957 8.08804L16.2298 6.92179ZM14.7073 3.44147L15.8869 2.3696L16.9532 3.5546L15.7726 4.60772L14.7073 3.44147ZM17.7329 10.4024L18.9126 9.34929L20.0001 10.518L18.8016 11.5712L17.7329 10.4024ZM12.4204 7.78741L14.1904 6.2071L15.7885 7.95647L14.0191 9.5371L12.4204 7.78741Z" fill="#106DB3"/>
</g>
<defs>
<clipPath id="clip0_356:1130">
<rect width="20" height="20" fill="white"/>
</clipPath>
</defs>
</svg>
