<svg width="28" height="30" viewBox="0 0 28 30" fill="none" xmlns="http://www.w3.org/2000/svg">
<g clip-path="url(#clip0_110:251)">
<path d="M27.4231 7.79848C27.1003 6.51331 26.1546 5.50029 24.9553 5.15422C22.7642 4.51175 13.9997 4.51175 13.9997 4.51175C13.9997 4.51175 5.23545 4.51175 3.04433 5.12973C1.86813 5.47557 0.899349 6.51354 0.576566 7.79848C0 10.1459 0 15.0142 0 15.0142C0 15.0142 0 19.907 0.576566 22.2299C0.899563 23.5148 1.84505 24.5281 3.04454 24.8741C5.25852 25.5166 13.9999 25.5166 13.9999 25.5166C13.9999 25.5166 22.7642 25.5166 24.9553 24.8986C26.1548 24.5528 27.1003 23.5395 27.4233 22.2546C27.9999 19.907 27.9999 15.0389 27.9999 15.0389C27.9999 15.0389 28.023 10.1459 27.4231 7.79848Z" fill="#FF0000"/>
<path d="M11.2092 19.5117L18.4974 15.0142L11.2092 10.5167V19.5117Z" fill="white"/>
</g>
<defs>
<clipPath id="clip0_110:251">
<rect width="28" height="30" fill="white"/>
</clipPath>
</defs>
</svg>
